# set: 0001 config: 0000  energy: 2.884677e-01 eV/at
     -0.0764446       0.2117114      -0.0831337       8.33111911e-02 -4.92522507e-02  6.93494424e-02 
      0.0584447       0.0221669       0.3367919      -3.54494847e-02  6.64174156e-02 -1.38426938e-01 
      0.0611832       0.1059484      -0.1822406      -8.54013957e-02 -5.82460066e-02  4.28077700e-02 
      0.1073209      -0.2338846      -0.0965664       3.81701960e-02  1.13370429e-01  3.09730921e-02 
      0.0728394       0.4932643       0.0007295      -6.42383896e-02 -2.05555650e-01 -8.55454973e-02 
      0.0795526      -0.0981842       0.0668067       5.96565788e-03  1.36784328e-01  3.16342371e-02 
      0.0364608      -0.1036792      -0.4653163       3.49756263e-03  8.01083316e-03  1.65215696e-01 
     -0.0212702       0.0705426       0.1375595       5.41446624e-02 -1.15290993e-02 -1.16007802e-01 
# set: 0002 config: 0001  energy: 4.160229e-01 eV/at
     -0.0408112       0.2952063       0.1324520       2.62665183e-01 -2.32157719e-01 -2.68495124e-01 
     -0.0240924       0.0064982       0.1138385      -8.34828276e-02  5.94463384e-02 -9.00150869e-02 
      0.0849440      -0.0678998      -0.1386345      -1.02184561e-01 -8.37552639e-03  5.11998453e-02 
      0.0038440       0.1062412      -0.1214180      -3.99528630e-03 -5.81313644e-02  1.43949040e-02 
     -0.0600858       0.3580951       0.1805998       3.49215483e-03 -1.35084808e-01 -4.96031059e-02 
      0.2058050      -0.5409001      -0.0063382      -2.53036391e-01  3.81121176e-01  2.17829519e-01 
     -0.0339984      -0.2066027      -0.0612139       2.54528274e-02  3.17363053e-02  2.67785505e-02 
     -0.1711165       0.1400383      -0.2057528       1.51088901e-01 -3.85544023e-02  9.79104984e-02 
# set: 0003 config: 0002  energy: 3.911543e-01 eV/at
     -0.1421043       0.0162307       0.0070956       1.38626119e-02  5.56253092e-02  8.92667732e-02 
      0.4511318      -0.1049240       0.1769384      -3.32105855e-01  2.22387022e-01 -2.55981648e-01 
     -0.0820714       0.2619134       0.2463912      -6.82141419e-02 -1.30635075e-01  4.30452739e-02 
      0.0245968       0.1711388      -0.1238384      -2.33992044e-02 -1.45480052e-02  1.25467743e-01 
      0.1200471       0.0379344       0.0382063      -3.51643534e-02  2.07002511e-02 -2.82018795e-02 
     -0.4254702      -0.0059834       0.2930316       1.69982812e-01  7.60549834e-02 -1.52719752e-01 
     -0.1093831       0.0771513       0.1305944       6.42835702e-02  5.20048421e-02 -4.65045731e-02 
     -0.2549551       0.3562819       0.1779017       2.10754561e-01 -2.81589328e-01  2.25628062e-01 
# set: 0004 config: 0003  energy: 2.762429e-01 eV/at
     -0.3372705      -0.2805447       0.1294289       1.39137540e-01  2.37844005e-02 -7.46274974e-02 
      0.2543337      -0.1530044      -0.2030142      -5.86591841e-02  2.54006494e-02  4.48693234e-02 
      0.2324048      -0.0526524       0.0289508      -1.21888716e-01  7.77058004e-02  9.68441815e-04 
      0.2031843      -0.0337171       0.0922559      -1.25814622e-01 -3.10872446e-02 -3.66493614e-02 
     -0.3365870      -0.1097993      -0.0567652       2.31379809e-01 -5.05561644e-02  1.11578249e-02 
     -0.0823739      -0.1513708      -0.1123144       1.22569008e-01  5.23089660e-02  7.32553507e-02 
      0.3365616       0.1042001       0.0331979      -1.59062704e-01 -7.29565615e-02 -1.99333329e-02 
     -0.0450240      -0.0333178       0.0720097      -2.76611307e-02 -2.45998454e-02  9.59250820e-04 
# set: 0005 config: 0004  energy: 2.726620e-01 eV/at
     -0.0414010      -0.0664853       0.1017345       1.51100545e-01  2.94933682e-02  6.65685666e-02 
     -0.0689890       0.0053238       0.1462917       1.71043210e-02  2.52597391e-04 -5.88830771e-02 
      0.0464411       0.0320767       0.3300715       9.54202598e-03 -7.57312127e-02 -1.39202181e-01 
     -0.1482640      -0.3934038       0.0004916       1.03899182e-01  1.09607752e-01  7.62361539e-02 
      0.3125048       0.3667540       0.0505967      -1.35977209e-01 -2.12876779e-01 -4.01075821e-02 
      0.0489208      -0.3068613       0.0727561      -5.83586194e-02  1.27873586e-01  1.49435163e-02 
      0.1219931      -0.2424634       0.0244757      -1.67480653e-02  2.22516481e-02  1.02982453e-02 
      0.0480791       0.0320787      -0.1277486      -7.05621805e-02 -8.70959931e-04  7.01463575e-02 
# set: 0006 config: 0004  energy: 2.726620e-01 eV/at
     -0.0414010      -0.0664853       0.1017345       1.51100545e-01  2.94933682e-02  6.65685666e-02 
     -0.0689890       0.0053238       0.1462917       1.71043210e-02  2.52597391e-04 -5.88830771e-02 
      0.0464411       0.0320767       0.3300715       9.54202598e-03 -7.57312127e-02 -1.39202181e-01 
     -0.1482640      -0.3934038       0.0004916       1.03899182e-01  1.09607752e-01  7.62361539e-02 
      0.3125048       0.3667540       0.0505967      -1.35977209e-01 -2.12876779e-01 -4.01075821e-02 
      0.0489208      -0.3068613       0.0727561      -5.83586194e-02  1.27873586e-01  1.49435163e-02 
      0.1219931      -0.2424634       0.0244757      -1.67480653e-02  2.22516481e-02  1.02982453e-02 
      0.0480791       0.0320787      -0.1277486      -7.05621805e-02 -8.70959931e-04  7.01463575e-02 
# set: 0007 config: 0004  energy: 2.726620e-01 eV/at
     -0.0414010      -0.0664853       0.1017345       1.51100545e-01  2.94933682e-02  6.65685666e-02 
     -0.0689890       0.0053238       0.1462917       1.71043210e-02  2.52597391e-04 -5.88830771e-02 
      0.0464411       0.0320767       0.3300715       9.54202598e-03 -7.57312127e-02 -1.39202181e-01 
     -0.1482640      -0.3934038       0.0004916       1.03899182e-01  1.09607752e-01  7.62361539e-02 
      0.3125048       0.3667540       0.0505967      -1.35977209e-01 -2.12876779e-01 -4.01075821e-02 
      0.0489208      -0.3068613       0.0727561      -5.83586194e-02  1.27873586e-01  1.49435163e-02 
      0.1219931      -0.2424634       0.0244757      -1.67480653e-02  2.22516481e-02  1.02982453e-02 
      0.0480791       0.0320787      -0.1277486      -7.05621805e-02 -8.70959931e-04  7.01463575e-02 
# set: 0008 config: 0005  energy: 3.252113e-01 eV/at
     -0.0363581       0.0950773       0.0896285       8.04564389e-03 -6.54931299e-02 -3.25977763e-02 
     -0.1538329      -0.2158114      -0.0985266       3.36036402e-02  5.46247251e-02  7.82906096e-02 
     -0.2659326       0.1641228      -0.0935880       4.73411712e-02 -2.05089652e-01  1.39207480e-02 
      0.2800607      -0.0640167       0.2973812      -1.49097682e-01  1.22805560e-01 -2.29136405e-01 
     -0.0909552       0.1355186      -0.0900355       6.57565771e-02 -3.57439824e-02  4.96426994e-02 
     -0.3769032      -0.0661087       0.1033563       2.60417433e-01 -7.87563194e-02 -1.14854193e-04 
      0.0169934      -0.3578624       0.0299447      -9.65577590e-02  1.12347631e-01 -1.99280911e-02 
      0.1552450      -0.1058489      -0.0629141      -1.69509024e-01  9.53051679e-02  1.39923069e-01 
# set: 0009 config: 0006  energy: 4.720683e-01 eV/at
      0.0805942       0.1593699      -0.3580156      -1.50253235e-01 -1.52665218e-01  1.62600431e-01 
      0.1496170       0.3682571      -0.0455049      -1.69211834e-01 -3.53330581e-01  1.07285760e-01 
     -0.0526978      -0.0614015      -0.0981734       5.70930440e-02 -6.82844700e-03  1.46294049e-02 
     -0.1748836       0.1059684       0.0585404       3.93408074e-02 -1.00815648e-01 -2.49333738e-02 
      0.0363622      -0.5555669      -0.0576127      -7.21131279e-02  2.51583617e-01  6.26099580e-02 
     -0.0686244      -0.0725399      -0.2163948       2.42039539e-02 -1.10012583e-02  2.11945836e-02 
     -0.0683112      -0.2045374       0.2488696       1.84617905e-01  2.60749010e-01 -2.66810609e-01 
      0.0126503      -0.1765495      -0.0348883       8.63224878e-02  1.12308526e-01 -7.65761554e-02 
# set: 0010 config: 0006  energy: 4.720683e-01 eV/at
      0.0805942       0.1593699      -0.3580156      -1.50253235e-01 -1.52665218e-01  1.62600431e-01 
      0.1496170       0.3682571      -0.0455049      -1.69211834e-01 -3.53330581e-01  1.07285760e-01 
     -0.0526978      -0.0614015      -0.0981734       5.70930440e-02 -6.82844700e-03  1.46294049e-02 
     -0.1748836       0.1059684       0.0585404       3.93408074e-02 -1.00815648e-01 -2.49333738e-02 
      0.0363622      -0.5555669      -0.0576127      -7.21131279e-02  2.51583617e-01  6.26099580e-02 
     -0.0686244      -0.0725399      -0.2163948       2.42039539e-02 -1.10012583e-02  2.11945836e-02 
     -0.0683112      -0.2045374       0.2488696       1.84617905e-01  2.60749010e-01 -2.66810609e-01 
      0.0126503      -0.1765495      -0.0348883       8.63224878e-02  1.12308526e-01 -7.65761554e-02 
# set: 0011 config: 0007  energy: 3.692845e-01 eV/at
      0.2976676      -0.2911285       0.3203299      -2.11153948e-01  2.20141978e-01 -2.10747873e-01 
     -0.0052622       0.1084229       0.0775922       6.33564142e-02 -1.27627011e-01 -8.48156678e-02 
      0.1800407      -0.2627987       0.2148727      -9.70517574e-02  1.88225766e-01 -7.08766708e-02 
      0.1728169       0.2359741      -0.0285617      -9.83122726e-02 -1.01304383e-01  3.14444034e-02 
      0.0505876      -0.1715111      -0.1730690       8.09049623e-02  3.04639694e-02  1.69993734e-01 
     -0.3301923      -0.0870959      -0.1017970       1.56928576e-01  3.14640405e-03  4.24635061e-02 
      0.0971676       0.2256839       0.1617624       8.14606483e-02 -2.09998048e-01  7.47245756e-02 
     -0.0541349      -0.0109702       0.0382078       2.38673762e-02 -3.04867519e-03  4.78139919e-02 
# set: 0012 config: 0008  energy: 2.553048e-01 eV/at
      0.0464239      -0.0362903      -0.2026176       4.20830768e-02  5.60480709e-02  8.77208427e-02 
     -0.2575999      -0.0631289       0.0507748       6.64044064e-02  2.59087690e-02 -8.32702713e-02 
      0.0502765       0.1765446      -0.2403717      -5.83131342e-02 -1.05638096e-01  1.36787262e-01 
     -0.2428807       0.0953860      -0.1917747       9.25861353e-02 -1.70898031e-03  4.69834971e-02 
      0.1944903       0.0618239      -0.0348783      -1.39767313e-01 -3.43777351e-03  3.78233508e-02 
     -0.0673611      -0.1162222       0.0348620       7.49735209e-02  9.74971417e-02 -2.01851180e-01 
      0.1250647      -0.0698180       0.2758158      -7.45246140e-02  8.27528694e-03 -1.59489998e-01 
      0.0007725       0.1775165      -0.3531747      -3.44207866e-03 -7.69444183e-02  1.35296498e-01 
# set: 0013 config: 0009  energy: 3.061736e-01 eV/at
      0.1484177      -0.0812402       0.0564486      -6.68742230e-02 -3.13258663e-03  4.20476733e-02 
      0.0255975       0.3207386       0.3826451       6.87828849e-02 -1.28719365e-01 -1.65780675e-01 
      0.4433662       0.0783583      -0.0359981      -1.97820238e-01 -2.12116778e-02  5.49029131e-02 
      0.0176904      -0.0334853      -0.0911068      -6.47019731e-02  3.97983379e-03  2.78171357e-02 
     -0.0623067       0.0018605      -0.0348221       1.14496988e-02  1.38157880e-02  1.20764157e-01 
     -0.2183062      -0.1269169      -0.2177723       1.52466175e-01  1.04593742e-01 -2.14995301e-02 
      0.1646888       0.0985262       0.2779323      -2.69947760e-02 -5.48653942e-02 -7.06723188e-02 
     -0.2990497      -0.1401782      -0.0577241       1.23692450e-01  8.55396593e-02  1.24206450e-02 
# set: 0014 config: 0010  energy: 3.457037e-01 eV/at
     -0.0933816       0.1315275       0.0649820      -2.77254770e-02 -1.09358575e-01 -6.75361606e-02 
     -0.4902512       0.0233497       0.0612680       1.75809916e-01 -1.14779669e-01 -9.06456415e-02 
      0.0744305       0.1022232      -0.0805234      -1.51143634e-01 -2.94037538e-02  2.69368635e-02 
     -0.0098744      -0.0313015       0.1705602      -9.08518009e-02  6.74782850e-02 -1.03037737e-01 
     -0.0184986       0.1032281      -0.3028464      -1.36473266e-01  5.05184048e-02  1.59923674e-01 
     -0.1432509      -0.1502404      -0.2083952      -5.23862815e-02  8.00945721e-02  1.22282842e-01 
     -0.5049763      -0.1504744      -0.1909849       1.51158698e-01 -1.78038389e-03  1.04136198e-01 
     -0.2947823       0.0562630       0.2811015       1.31611845e-01  5.72311205e-02 -1.52060037e-01 
# set: 0015 config: 0011  energy: 3.717900e-01 eV/at
     -0.0631062       0.1043288      -0.2697975       1.01442414e-01 -2.02845492e-01 -2.84916279e-03 
     -0.0842036       0.0911127      -0.3201453      -3.52477390e-03 -6.35499326e-02  6.32342363e-02 
     -0.0451679      -0.0162583       0.3519357      -2.98682361e-02  2.02559166e-02 -1.30542390e-01 
      0.0369515      -0.1208455       0.0777734       1.33401533e-02  3.84897331e-02 -3.44974732e-02 
      0.1158609      -0.0207714      -0.0894502      -9.66281412e-02 -3.78299503e-02 -3.63894986e-02 
      0.2330330      -0.3216137      -0.3967345      -2.29608652e-01  1.65744899e-01  2.73789983e-01 
     -0.0309177      -0.0908799      -0.1369894       7.98173238e-02  7.24746198e-02  6.13076093e-02 
     -0.3032477       0.2397539       0.2321652       1.65029912e-01  7.26020600e-03 -1.94053304e-01 
# set: 0016 config: 0012  energy: 3.678905e-01 eV/at
     -0.1376585      -0.1493986       0.0544195       3.15928303e-02  1.50308800e-01 -3.25485270e-02 
      0.0907455      -0.0443789      -0.0780270      -1.67673928e-04  3.19329858e-02  3.42428708e-02 
      0.1023506      -0.1480856       0.0172517      -1.46755862e-02  9.59595485e-02  4.74595044e-02 
      0.3665593       0.3101701       0.1112958      -3.02972935e-01 -1.92401913e-01  1.46121143e-01 
     -0.0934151      -0.1372349       0.2565029       2.45656640e-01  1.76717589e-01 -3.00791073e-01 
     -0.2102497       0.0943504       0.0027611       1.54777211e-01 -6.37963335e-02  5.98354818e-02 
     -0.0087533       0.3846689      -0.0412514      -2.02545156e-02 -1.40050334e-01  5.93552728e-02 
      0.3061979       0.2227994       0.0133363      -9.39559705e-02 -5.86703431e-02 -1.36746724e-02 
# set: 0017 config: 0013  energy: 2.741965e-01 eV/at
      0.3639343      -0.0806772       0.1463147      -1.87719589e-01 -1.94552541e-02 -2.72583620e-02 
     -0.2987608      -0.0136701      -0.0873120       1.24533201e-01  4.47675193e-02  1.04955491e-01 
     -0.2272269       0.0161150      -0.2599450       4.82593159e-02  4.73262811e-03  1.94434470e-01 
      0.0008380      -0.3088585       0.2406953      -6.12059915e-03  9.96397175e-02 -9.43161284e-02 
     -0.0925670       0.0393053      -0.1272778      -1.46311722e-02  1.65953150e-03  9.38200452e-02 
     -0.0384478      -0.0795616       0.2850533       7.06396185e-03 -6.44980256e-02 -1.50985137e-01 
      0.0797167      -0.1190415       0.0844662      -4.84251630e-02 -6.61067066e-02 -5.15617261e-02 
     -0.2464031       0.0644647       0.1904994       7.70400442e-02 -7.39410571e-04 -6.90886536e-02 
# set: 0018 config: 0014  energy: 3.379017e-01 eV/at
     -0.0433160       0.0552170       0.1156991       7.80390900e-02 -1.04143067e-02 -1.58664910e-01 
      0.0638965       0.1493243       0.0555841       2.56271631e-02 -2.09387950e-02 -3.15761966e-02 
      0.1231737       0.2985002       0.0972714      -8.91438380e-02 -1.12132813e-01  9.78086702e-03 
      0.2963863      -0.3791827      -0.0385288       1.56087483e-02  1.99043667e-01  6.62433261e-02 
      0.1644479       0.2220764      -0.1072960      -7.47230339e-02 -9.50231874e-02  4.11555459e-02 
      0.1643085      -0.3447118       0.0444802      -6.74364248e-02  2.37655345e-01  5.93303185e-02 
     -0.1752044       0.2180469      -0.1422508       1.72131671e-01 -1.36872291e-01  1.10905024e-01 
      0.1333195       0.2788777       0.1660013      -6.01033754e-02 -6.13176190e-02 -9.71739750e-02 
# set: 0019 config: 0015  energy: 3.459730e-01 eV/at
      0.0069947       0.1302075       0.3186633       6.76677111e-02 -7.94652143e-02 -1.24291935e-01 
     -0.4099777      -0.0055375       0.0031492       1.36354398e-01 -3.03900113e-03  6.85050699e-02 
      0.1784607      -0.1178385      -0.0750304      -1.14333301e-01 -1.28216293e-02  1.06433116e-01 
      0.3652154       0.0562177       0.0182399      -3.04958208e-01 -1.95714419e-01  1.77749688e-01 
     -0.2168974      -0.1043027       0.3128391       2.30780142e-01  2.05733528e-01 -2.17250109e-01 
     -0.0865286      -0.1537924       0.0096151       2.94182693e-02  9.05377240e-02  3.11669163e-02 
     -0.1745089       0.0064998       0.2793776       2.04968505e-02 -3.04738399e-02 -4.41086146e-02 
      0.1738476      -0.0405402       0.0370435      -6.54258619e-02  2.52428518e-02  1.79586713e-03 
# set: 0020 config: 0016  energy: 3.313325e-01 eV/at
     -0.1376157      -0.0373446      -0.1902004       3.79672711e-02  2.26534102e-02  3.93347151e-02 
      0.1734873      -0.3017457      -0.3844090      -5.13487331e-04  1.42582205e-01  1.18466073e-01 
      0.1417791      -0.1242798      -0.2378022      -5.69759892e-02  3.70339753e-02  8.38021010e-02 
      0.0525843      -0.2552329       0.0504504      -1.40675312e-01  1.78136595e-01 -1.55412722e-01 
     -0.1651087      -0.0288187       0.0469467       4.63983565e-02 -6.87460345e-03 -3.55193640e-02 
     -0.2673445       0.3894064       0.1469486       1.05962552e-01 -2.48742917e-01  3.01549527e-03 
     -0.0692207       0.0932819      -0.0108954      -1.32905843e-02 -8.59481474e-03 -7.31010823e-02 
     -0.0972659       0.1112560      -0.0785223       2.11271939e-02 -1.16193850e-01  1.94147847e-02 
# set: 0021 config: 0016  energy: 3.313325e-01 eV/at
     -0.1376157      -0.0373446      -0.1902004       3.79672711e-02  2.26534102e-02  3.93347151e-02 
      0.1734873      -0.3017457      -0.3844090      -5.13487331e-04  1.42582205e-01  1.18466073e-01 
      0.1417791      -0.1242798      -0.2378022      -5.69759892e-02  3.70339753e-02  8.38021010e-02 
      0.0525843      -0.2552329       0.0504504      -1.40675312e-01  1.78136595e-01 -1.55412722e-01 
     -0.1651087      -0.0288187       0.0469467       4.63983565e-02 -6.87460345e-03 -3.55193640e-02 
     -0.2673445       0.3894064       0.1469486       1.05962552e-01 -2.48742917e-01  3.01549527e-03 
     -0.0692207       0.0932819      -0.0108954      -1.32905843e-02 -8.59481474e-03 -7.31010823e-02 
     -0.0972659       0.1112560      -0.0785223       2.11271939e-02 -1.16193850e-01  1.94147847e-02 
# set: 0022 config: 0017  energy: 1.862733e-01 eV/at
     -0.3176481      -0.0203942      -0.0650945       1.37345479e-01 -6.80067216e-02  8.94312084e-03 
     -0.0727747      -0.0064856       0.1757977       7.61422129e-02 -1.56814272e-02 -2.96949366e-02 
      0.1581755      -0.0064066      -0.0301291      -3.36731811e-02  1.44640109e-02  6.44351701e-02 
     -0.0072764      -0.1487890       0.2204008      -2.14336677e-02  6.00557343e-04 -3.70333432e-02 
     -0.2493259      -0.2441137       0.1296573       8.86271027e-02  6.79149147e-02 -5.83520875e-02 
      0.1708135      -0.0140248      -0.0579733      -1.95815613e-02  8.04535063e-03  1.20219537e-01 
      0.3233209       0.0232904       0.0844626      -1.79050565e-01 -1.09838583e-02  3.01887911e-02 
      0.0125252      -0.1323345       0.2562511      -4.83758200e-02  3.64717310e-03 -9.87062521e-02 
# set: 0023 config: 0018  energy: 4.970262e-01 eV/at
      0.3579692      -0.1460655      -0.1002521      -8.45276518e-02  1.13816096e-01 -5.08250202e-03 
     -0.2803516      -0.0495474      -0.0431375       1.20584355e-01  6.92051172e-02  9.31686284e-02 
      0.3562052      -0.2096661       0.2052455      -3.78364020e-01  3.13621495e-01 -3.09817464e-01 
      0.1627406       0.0080388       0.1019356      -9.29420829e-02  8.17981563e-02 -4.96745422e-02 
      0.0147012       0.3653452      -0.0936998       2.52044277e-01 -3.12111565e-01  3.45360141e-01 
     -0.1807809       0.1956147       0.1591593       3.27790841e-02 -1.48298560e-01 -7.69951183e-02 
     -0.2807812       0.0672170       0.2619401       1.39873826e-01 -3.48216620e-02 -6.03361217e-02 
      0.0747951       0.2729525      -0.0461411       1.05522121e-02 -8.32090774e-02  6.33769800e-02 
# set: 0024 config: 0019  energy: 4.104607e-01 eV/at
      0.1148787       0.0063943       0.1823022      -7.44038444e-02  4.80290883e-03 -1.05846162e-01 
      0.1870851       0.2112062      -0.2505437      -1.33587576e-01 -1.15225757e-01  1.54379267e-01 
     -0.1031811       0.1764334      -0.2677648      -2.97648435e-02 -1.10344682e-01  1.55823144e-01 
     -0.1997142      -0.0985816       0.1992651       1.68892012e-01 -5.38312347e-02 -1.46949644e-01 
     -0.0190876       0.0662354       0.3074604      -3.58012135e-03 -3.39817988e-02 -1.68193670e-01 
     -0.1139179      -0.2424633      -0.1403580       8.21110270e-02  1.52834214e-01  8.67370223e-02 
     -0.0264338      -0.1470145      -0.3288815       2.41811360e-04  1.18670717e-01  2.09985543e-01 
     -0.0135149      -0.0494845       0.2041200      -9.90846516e-03  3.70756332e-02 -1.85935499e-01 
# set: 0025 config: 0020  energy: 3.105209e-01 eV/at
      0.3069790      -0.3250360      -0.1919889      -4.30926006e-02  1.58083602e-01  6.68550580e-02 
     -0.2285037      -0.0067134       0.2313543       1.28559401e-01  3.03546949e-02 -5.03908576e-02 
      0.1622409       0.1170150      -0.0139275      -1.11673990e-02 -9.51999221e-02 -7.23345056e-02 
     -0.0756421      -0.2345625      -0.0971206       6.38429290e-02  5.24147840e-02  2.97710708e-02 
      0.0800138       0.3061453       0.0528169      -6.48137515e-02 -1.79936143e-01 -1.71468338e-02 
      0.0748599       0.1270332       0.2410625      -9.45135401e-03 -6.88291039e-03 -1.50284511e-01 
      0.1829963       0.0260115      -0.2307372       4.24323199e-03 -1.02324718e-01  1.00909808e-01 
      0.0777304      -0.2734494      -0.2281011      -6.81204568e-02  1.43490612e-01  9.26207698e-02 
# set: 0026 config: 0021  energy: 4.978728e-01 eV/at
     -0.1062063      -0.1974858       0.4957110       2.79594151e-02  2.17115500e-02 -2.75352609e-01 
     -0.1997544      -0.0234805      -0.3358353       1.18151150e-01  4.28667388e-02  1.08457460e-01 
     -0.1627531       0.4529164       0.3502272       1.24754870e-01 -1.74941336e-01 -1.39927795e-01 
      0.1620601       0.1001420       0.1868560      -3.17664468e-02 -1.54702696e-02 -1.42931648e-01 
      0.2916806       0.0075926      -0.0986802      -1.51942147e-01  3.05082251e-02  1.78840158e-02 
      0.1451297      -0.0318893      -0.2593376      -1.97332924e-01  6.19748081e-02  1.69449416e-01 
      0.0655860       0.0288302      -0.2530504       9.59214205e-02 -4.41680125e-02  2.17340085e-01 
     -0.2732894       0.0303399       0.0508869       1.42546634e-02  7.75182957e-02  4.50810742e-02 
# set: 0027 config: 0022  energy: 5.920437e-01 eV/at
     -0.2321711      -0.1822265      -0.2879009       5.36105403e-03  2.92941728e-02  7.17870706e-02 
     -0.2951850      -0.1010910       0.1412320      -7.40438923e-04  7.27085244e-02 -6.72347059e-02 
      0.1306667      -0.0192523      -0.2989658      -2.63629071e-01 -2.22773046e-01  2.34116734e-01 
     -0.2430303       0.2590405       0.1370801      -6.99902790e-02 -3.21938205e-01  4.58552305e-02 
     -0.5919114      -0.3641176       0.1673348       2.83939258e-01  2.27313966e-01 -1.92499178e-01 
     -0.4577233       0.0838987       0.3606415       2.43443765e-01  1.67219831e-01 -2.79259813e-01 
     -0.0034900       0.0049115      -0.1260000      -2.23107956e-01  1.14563478e-01  8.42474495e-02 
     -0.3156094      -0.0590122      -0.2722214       2.47236669e-02 -6.63887201e-02  1.02987213e-01 
# set: 0028 config: 0023  energy: 2.622391e-01 eV/at
     -0.2013252       0.2022123      -0.4276198       1.22616534e-01  4.43143135e-02  1.65300695e-01 
      0.0328349       0.0754835       0.2505211       9.65177730e-03 -2.73416628e-02 -9.64363582e-02 
     -0.2411114      -0.0316420      -0.2668059       1.26501288e-01 -3.17948584e-02 -6.77091684e-03 
      0.1605885      -0.0506479      -0.0601450      -9.06969919e-02  1.29442478e-02  4.06164971e-02 
      0.1184831      -0.0693711       0.2590443      -8.42289353e-02  1.66377913e-02 -1.41301381e-01 
      0.0520827       0.1672103       0.0591340      -3.78641838e-03 -8.30715053e-02 -1.41147963e-02 
     -0.2178971      -0.0750060      -0.0795619       3.38954659e-02  3.84569857e-02 -3.87634779e-02 
      0.3303146      -0.0399832      -0.2551222      -1.13952719e-01  2.98546890e-02  9.14697379e-02 
# set: 0029 config: 0024  energy: 3.041410e-01 eV/at
      0.1645084      -0.0281288      -0.0839821      -8.06701970e-02 -3.84596017e-02 -5.53132295e-03 
     -0.2226545       0.0579821       0.0052020       1.02286654e-01 -1.43485471e-01 -4.86446267e-02 
     -0.2545976      -0.2068623      -0.3944196       1.51895600e-01  9.93666577e-02  2.10887623e-01 
      0.1556742       0.1675967       0.1095089      -1.10242356e-01 -1.69734706e-01  3.80925426e-02 
     -0.0918534      -0.3897673      -0.0093952       3.22841355e-02  1.90863648e-01 -4.28251668e-03 
     -0.0254859      -0.3234859       0.0299031       3.00753133e-02  1.00575120e-01 -6.50059165e-02 
     -0.1250130      -0.0342502       0.0946373      -8.65481540e-02 -1.21848528e-01 -1.48005721e-01 
      0.1431249      -0.2053452      -0.1118513      -3.90809956e-02  8.27228811e-02  2.24899376e-02 
# set: 0030 config: 0025  energy: 5.070791e-01 eV/at
     -0.3721343       0.2906670       0.0090564       2.02664840e-01 -8.61997763e-02 -1.34041620e-02 
     -0.0590492      -0.1806084       0.0392000       6.32760331e-02  3.39772366e-02  3.44406380e-03 
      0.3428718       0.0681721       0.1167357      -7.90969626e-02 -2.16184544e-01  2.76857843e-02 
     -0.0055241       0.3258989       0.0049722      -6.94909186e-02 -2.01484123e-01  3.45217997e-02 
      0.1570585      -0.1530916       0.4101914       1.00002236e-01  3.20703537e-02 -1.86254322e-01 
     -0.3569155      -0.1744168       0.0193410       1.67755426e-01  2.26918805e-01 -4.87182236e-02 
      0.2376955       0.0560962       0.0482187      -1.64639155e-01  9.75111714e-03  7.19137893e-02 
      0.3306451      -0.3808571      -0.1287511      -2.20471500e-01  2.01150931e-01  1.10811271e-01 
# set: 0031 config: 0026  energy: 3.017393e-01 eV/at
      0.0493312       0.0976832       0.2069401       7.69918781e-02 -6.89985639e-02 -1.10558310e-01 
     -0.0431753      -0.0808148       0.0442741       1.13751519e-01  4.93989955e-02  5.15450986e-02 
      0.3260194      -0.0699344      -0.4529215      -7.40490178e-02 -2.27799310e-02  1.67918084e-01 
     -0.0378075       0.1086047      -0.1212114       9.11149424e-02 -3.41917659e-02  6.05352156e-02 
      0.0099488      -0.1269418       0.0112962       6.84846919e-02  1.41651734e-01  1.08325984e-03 
      0.2549971       0.0887948       0.0972106      -4.80668553e-02 -4.65501376e-02 -1.20463927e-01 
      0.1569580      -0.2670894       0.0672568      -8.20444890e-02  1.42516323e-01 -3.44753111e-02 
      0.4645621       0.1757639      -0.1544776      -1.46182669e-01 -1.61046655e-01 -1.55841098e-02 
# set: 0032 config: 0027  energy: 1.581826e-01 eV/at
      0.1683259       0.1188132      -0.0311077      -6.52605403e-02 -3.12510681e-02  2.35535724e-02 
      0.0331818      -0.1314473      -0.1335373       7.02926312e-03  1.07895714e-01  6.29498829e-02 
     -0.0740670       0.1220049      -0.1746375       6.02649935e-02  5.12095396e-02  3.68707165e-02 
      0.0501716       0.0652162      -0.1487785      -3.39821380e-02  1.08488584e-01 -2.91495824e-02 
     -0.0047579       0.3412362      -0.1233893       2.82291021e-02 -6.34549392e-02 -1.34185388e-02 
      0.0630206       0.4370278      -0.3348845       2.38850997e-02 -1.77940423e-01  9.37724341e-02 
      0.0962001      -0.0077020       0.1163472      -3.90094213e-02  1.05746916e-02 -6.56908275e-02 
      0.0112676       0.0620225       0.0970638       1.88436412e-02 -5.52209773e-03 -1.08887657e-01 
# set: 0033 config: 0028  energy: 5.059547e-01 eV/at
      0.1252523       0.2345661       0.2966511       6.41954960e-02 -2.80844771e-01 -1.11401611e-01 
      0.0219413      -0.2141961      -0.1614992       1.28586993e-02  9.87452358e-02  1.26479094e-01 
     -0.2674834       0.0462336      -0.0684654       1.99029010e-01  7.77490328e-02  1.12628001e-01 
      0.1344257      -0.2515394       0.1494821      -7.26586377e-02  1.26361184e-01 -8.71220652e-02 
     -0.0697980       0.4150988       0.0742296       9.02655662e-04 -1.65679159e-01  7.74794719e-03 
      0.2678056      -0.0281076      -0.2175088      -2.04541485e-01  1.26604425e-01  1.73942494e-01 
      0.2124002      -0.0267733       0.3789818      -1.08761471e-01 -1.92337677e-01 -1.90936246e-01 
     -0.2346485      -0.3579651       0.0280949       1.08975733e-01  2.09401729e-01 -3.13376146e-02 
# set: 0034 config: 0029  energy: 3.464457e-01 eV/at
     -0.2714692      -0.1512951      -0.2262846       1.63326671e-01  1.52652029e-01  1.53798637e-01 
      0.0140224      -0.0698239      -0.1297951      -2.35381230e-02  5.85871026e-02 -4.24606396e-02 
     -0.0959229      -0.1399111       0.0120137       6.31001853e-02  1.16475430e-01  2.71971307e-02 
      0.1388731       0.0109483       0.0345195      -1.45249574e-01  7.64708426e-02 -1.99776910e-01 
      0.0931675       0.0331941      -0.0005499      -9.08519541e-02 -1.23589745e-01 -1.31967014e-01 
     -0.2477098       0.2269984      -0.2358887       1.89482722e-01 -2.17518889e-01  1.65067195e-01 
      0.4509289       0.0182698      -0.0681892      -2.30591207e-01 -3.77177762e-02 -3.04140298e-02 
     -0.3309429      -0.1159623      -0.2270317       7.43212799e-02 -2.53589953e-02  5.85556309e-02 
# set: 0035 config: 0030  energy: 4.998914e-01 eV/at
     -0.2492363       0.0529711       0.1394853       2.70598904e-02 -1.25219459e-02 -7.94218893e-02 
      0.2289808       0.3197725      -0.1105599      -3.68067776e-01 -3.28350705e-01  3.57163714e-01 
     -0.0948853      -0.0080952       0.0048089      -8.28035986e-02  9.90332289e-02 -7.93008280e-02 
      0.0691770       0.1055015       0.0281270      -1.33469887e-01 -9.20346666e-02  5.26960286e-02 
     -0.6500130      -0.0057496      -0.0899540       2.44707008e-01  6.56694573e-02  4.56927275e-02 
      0.0494940       0.1786718       0.0796361      -3.72235973e-02 -4.84632529e-02 -1.14325781e-02 
     -0.3780160      -0.2056899       0.0678495       3.23425593e-01  3.74641062e-01 -3.65450956e-01 
     -0.1659674       0.1030251      -0.1111556       2.63723669e-02 -5.79731774e-02  8.00537811e-02 
# set: 0036 config: 0031  energy: 1.984095e-01 eV/at
     -0.0488953       0.1662629       0.0362671       7.92445685e-02 -1.96284571e-02  3.80632734e-03 
     -0.3056870      -0.0499218      -0.2541378       1.31004203e-01  8.91577181e-02  1.22126085e-01 
      0.0187090      -0.0099295       0.2482328       4.32145055e-03 -5.82657647e-02 -1.06971940e-01 
      0.1641513      -0.2304526      -0.1083000      -9.02634647e-02  1.02156274e-01  1.90834596e-02 
      0.0859754       0.1667408       0.2736160      -4.49436308e-02 -1.16827831e-01 -8.71182777e-02 
     -0.0964356      -0.0835226       0.0410468      -3.11440833e-02 -7.96869833e-03 -2.23344580e-02 
     -0.1081514       0.0933325       0.0483209       3.50993984e-02 -6.16413209e-02 -2.06376371e-02 
      0.0567813       0.0193174      -0.2505012      -8.33184413e-02  7.30180787e-02  9.20464417e-02 
# set: 0037 config: 0032  energy: 4.201514e-01 eV/at
     -0.1967672      -0.1268716      -0.0369664       6.65064871e-02  3.30318184e-02  2.32146070e-02 
      0.3803621       0.1655174      -0.0863695      -1.78847758e-01 -1.58886720e-01  1.56327252e-01 
     -0.1874910       0.2096185      -0.1582598       5.81085680e-02 -6.94700039e-02  3.71682328e-02 
      0.1466658       0.1506996      -0.0582908      -1.50251007e-01 -2.03238389e-01  1.65368736e-01 
     -0.0871726      -0.2388581       0.2635811       1.64379893e-01  1.99617814e-01 -3.22940936e-01 
      0.1382647       0.0364794      -0.0396962      -1.92766805e-02  1.48395590e-03  9.36327704e-02 
     -0.1189928      -0.1915302      -0.1816721       1.04582776e-01  1.78097532e-01  2.23099561e-02 
      0.1768939      -0.1527769       0.4061552      -4.52022782e-02  1.93639929e-02 -1.75080619e-01 
# set: 0038 config: 0033  energy: 2.640751e-01 eV/at
      0.1977739       0.2750800       0.0409198      -2.37416255e-02 -1.41452116e-01  2.54071350e-03 
     -0.0547289       0.1615986       0.2198097       1.01628201e-01 -1.30298599e-01 -1.11613254e-01 
      0.0915147       0.0406945      -0.0535909      -4.05953863e-02 -6.68418116e-02  8.99001083e-03 
      0.3161189      -0.1512364       0.1129067      -1.03020775e-01  7.97219173e-02 -1.28395651e-01 
     -0.0200125      -0.0657065      -0.1163334       8.31964532e-03  1.30271865e-01  1.04360195e-01 
     -0.0571578      -0.0632826      -0.0663410       1.51497920e-01 -6.12145073e-02  9.78657212e-02 
      0.1383095      -0.4866382      -0.0514404      -6.26706413e-02  1.94967498e-01  3.90516899e-02 
      0.1606726       0.0110084       0.0087470      -3.14173391e-02 -5.15424671e-03 -1.27994252e-02 
# set: 0039 config: 0034  energy: 3.516220e-01 eV/at
      0.1926897       0.0665520       0.1206373      -7.40468257e-02  1.11740331e-02  3.89655639e-02 
     -0.0167918      -0.1089053       0.1929299      -1.15046274e-02  6.63479361e-02 -2.62285656e-02 
     -0.3405428       0.1891581       0.1732366       2.03739631e-01 -9.40771971e-02 -1.24529280e-01 
      0.1050939       0.4274354      -0.2070994      -1.45063440e-01 -2.21986248e-01  1.98763647e-01 
     -0.1256335       0.2474909       0.2870529       2.31255674e-01  1.12921321e-01 -2.09247932e-01 
     -0.2419503       0.2442869      -0.0128834       1.12996384e-01 -3.92876244e-02  5.07026650e-02 
      0.1677868      -0.0267304       0.1326111      -1.30932467e-01  1.65272018e-02  2.43799608e-02 
      0.2168863      -0.0420717       0.1689727      -1.86444329e-01  1.48380578e-01  4.71939406e-02 
# set: 0040 config: 0034  energy: 3.516220e-01 eV/at
      0.1926897       0.0665520       0.1206373      -7.40468257e-02  1.11740331e-02  3.89655639e-02 
     -0.0167918      -0.1089053       0.1929299      -1.15046274e-02  6.63479361e-02 -2.62285656e-02 
     -0.3405428       0.1891581       0.1732366       2.03739631e-01 -9.40771971e-02 -1.24529280e-01 
      0.1050939       0.4274354      -0.2070994      -1.45063440e-01 -2.21986248e-01  1.98763647e-01 
     -0.1256335       0.2474909       0.2870529       2.31255674e-01  1.12921321e-01 -2.09247932e-01 
     -0.2419503       0.2442869      -0.0128834       1.12996384e-01 -3.92876244e-02  5.07026650e-02 
      0.1677868      -0.0267304       0.1326111      -1.30932467e-01  1.65272018e-02  2.43799608e-02 
      0.2168863      -0.0420717       0.1689727      -1.86444329e-01  1.48380578e-01  4.71939406e-02 
# set: 0041 config: 0035  energy: 6.079629e-01 eV/at
     -0.1256052       0.2639685       0.0873037       1.60717696e-01 -1.32284143e-01 -1.69831900e-01 
      0.0683083      -0.0109763       0.1376959      -1.07315706e-01  9.93635190e-02 -1.27333819e-01 
      0.2551201      -0.2231889       0.0213502      -3.21808444e-01  2.97083939e-01 -3.32470150e-01 
      0.0572305      -0.0509317      -0.1891497      -5.58819465e-03  8.40952802e-02  1.10715157e-01 
     -0.4402351       0.3795948       0.0090541       3.69091814e-01 -3.22439099e-01  2.85355228e-01 
     -0.1546092      -0.3162607      -0.2743449      -4.70462577e-02  2.33852460e-01  1.93353935e-01 
     -0.1514579       0.2159736      -0.0106374       2.74589350e-03 -1.04371840e-01  2.36719986e-02 
      0.0880593       0.3998140      -0.1007054      -5.07968020e-02 -1.55300116e-01  1.65395506e-02 
# set: 0042 config: 0036  energy: 4.206152e-01 eV/at
     -0.0352952      -0.1430186       0.0875374      -1.49976579e-01  8.71232701e-02 -1.02018049e-01 
      0.0090133      -0.3093727      -0.0505584      -6.73431042e-02  1.91899555e-01  1.43163066e-02 
     -0.4644125       0.1602990      -0.2624013       9.31664496e-02 -7.52441028e-02  1.39963857e-01 
     -0.5174665      -0.1183173       0.1517444       2.33699937e-01 -2.27639118e-02 -6.40812625e-02 
     -0.1972997      -0.2235329      -0.0358446       1.55053697e-02  5.21728828e-02  1.79437178e-02 
     -0.1704353      -0.0052155       0.4233502       3.14563162e-03 -5.09408370e-02 -2.00569068e-01 
      0.0203748       0.1315989      -0.3268136      -9.12671510e-02 -2.38914939e-02  1.48362179e-01 
     -0.1311910       0.1591904      -0.0225033      -3.69305539e-02 -1.58355363e-01  4.60823190e-02 
# set: 0043 config: 0037  energy: 3.737665e-01 eV/at
      0.0247044       0.4954566       0.1951109       1.63330339e-01 -2.57024005e-01 -1.98417068e-01 
     -0.0521832       0.0196410       0.2090888       7.73558125e-02  1.00513431e-02 -7.85378634e-02 
     -0.0150774      -0.0643435       0.1326284       5.46104861e-02 -3.47644776e-02 -1.02936768e-01 
      0.0157062      -0.0104615      -0.2071544       5.34107595e-02 -5.24804134e-02  6.88639438e-02 
     -0.1155404      -0.0617070       0.0143825       9.16995572e-02  6.73841554e-02  3.85155474e-02 
      0.3886729      -0.2442306       0.2992680      -1.97938192e-01  1.46427874e-01  8.80605070e-02 
      0.3087957      -0.1756305      -0.2211843      -1.37111524e-01  9.56220541e-02  9.69897276e-02 
      0.1979266       0.0122808      -0.1431090      -1.05357238e-01  2.47834689e-02  8.74619741e-02 
# set: 0044 config: 0037  energy: 3.737665e-01 eV/at
      0.0247044       0.4954566       0.1951109       1.63330339e-01 -2.57024005e-01 -1.98417068e-01 
     -0.0521832       0.0196410       0.2090888       7.73558125e-02  1.00513431e-02 -7.85378634e-02 
     -0.0150774      -0.0643435       0.1326284       5.46104861e-02 -3.47644776e-02 -1.02936768e-01 
      0.0157062      -0.0104615      -0.2071544       5.34107595e-02 -5.24804134e-02  6.88639438e-02 
     -0.1155404      -0.0617070       0.0143825       9.16995572e-02  6.73841554e-02  3.85155474e-02 
      0.3886729      -0.2442306       0.2992680      -1.97938192e-01  1.46427874e-01  8.80605070e-02 
      0.3087957      -0.1756305      -0.2211843      -1.37111524e-01  9.56220541e-02  9.69897276e-02 
      0.1979266       0.0122808      -0.1431090      -1.05357238e-01  2.47834689e-02  8.74619741e-02 
# set: 0045 config: 0038  energy: 2.049904e-01 eV/at
     -0.2454073       0.0182936      -0.0339578       1.23449198e-01  3.72201023e-02  3.92763091e-02 
      0.0514151      -0.0377269      -0.1612042      -6.19368477e-02  1.11337368e-02  3.68513642e-02 
      0.0141931      -0.0530398      -0.0051848       4.91435826e-03  1.75520404e-02  5.00230630e-02 
     -0.1260714       0.0339536       0.0256290       2.88198951e-02 -1.43296985e-02 -5.15277889e-02 
      0.0520152       0.1734306       0.0138887      -1.13409397e-02 -1.50164651e-01 -3.11510192e-03 
     -0.3025704      -0.1419212      -0.0236140       1.30369163e-01  1.02481550e-01 -6.60693094e-02 
      0.2197295      -0.0264281       0.2344709      -1.51305532e-01 -4.03923673e-02 -1.50752298e-01 
     -0.0117024      -0.0328859      -0.2772810      -6.29692952e-02  3.64992865e-02  1.45313761e-01 
# set: 0046 config: 0039  energy: 4.139444e-01 eV/at
     -0.0935954      -0.0839333      -0.0994142       3.41066106e-02 -2.94824476e-03  2.11969546e-02 
     -0.1595043      -0.0092154      -0.1233046       1.66333252e-01  2.98554715e-02  9.36491804e-02 
      0.3342697       0.0092796      -0.0950781      -9.00910275e-02 -2.47574536e-02  3.09237526e-02 
     -0.0198422       0.2188259       0.3836374       1.74392706e-01 -2.35229237e-01 -2.33078782e-01 
      0.0932567      -0.2000520       0.1032263      -1.01767499e-01  3.41524163e-02 -8.49484587e-02 
      0.3411355       0.0974968      -0.0792320      -1.88192095e-01 -7.51419143e-02  8.63021277e-03 
     -0.0371713      -0.0720975      -0.3681909      -9.81436960e-02  1.43243822e-01  2.69759768e-01 
     -0.0721750      -0.3850142       0.0262647       1.03361749e-01  1.30825141e-01 -1.06132628e-01 
# set: 0047 config: 0040  energy: 3.497485e-01 eV/at
      0.4192501      -0.3329803      -0.0845757      -2.45594447e-01  1.17179959e-01 -9.94180784e-02 
      0.3679032      -0.1658101      -0.1263144      -1.37237445e-01  4.16753258e-03  7.81523075e-03 
     -0.0747090       0.4033063      -0.0492577       1.01036304e-01 -1.22437504e-01 -5.27114430e-02 
      0.0164897       0.2590622       0.0396254       4.90376561e-02 -5.99939931e-02 -6.93311541e-02 
      0.1992323      -0.0319892      -0.3967070      -7.84802150e-02  7.32583269e-03  7.20916558e-02 
      0.1666050       0.0346607      -0.3927206      -4.32110101e-02  6.21679054e-03  9.06162608e-02 
     -0.1367555       0.0910878       0.0540099       2.26582949e-01 -7.32389224e-02  8.82982610e-02 
     -0.0722212      -0.1424668       0.1419911       1.27866207e-01  1.20780304e-01 -3.73607322e-02 
# set: 0048 config: 0041  energy: 4.738678e-01 eV/at
      0.0604316       0.1905120       0.0130900      -1.65653422e-02 -2.63886541e-02 -2.91642527e-02 
      0.0294681      -0.0447781       0.0555045      -9.67736982e-03  9.65125628e-02 -8.60471881e-02 
      0.3065961      -0.0055018      -0.0655361      -1.00325707e-01  5.70855815e-03  8.40587562e-03 
     -0.1360063      -0.0842324       0.0839570       9.33333701e-02  6.76943810e-02 -1.52063451e-02 
      0.1162464      -0.2182426      -0.2169083      -1.08113206e-01  2.04199315e-01  1.64628870e-01 
      0.0797642       0.3252524       0.2041476      -9.49146881e-02 -2.24301754e-01 -1.50120260e-01 
     -0.2506333      -0.2432314      -0.1402904       1.06717450e-01  2.09329557e-01 -3.07490128e-03 
     -0.0450558       0.5091048      -0.1012571       1.29545492e-01 -3.32753966e-01  1.10578203e-01 
# set: 0049 config: 0042  energy: 4.851635e-01 eV/at
      0.1279072      -0.0909607      -0.0809741      -5.68968073e-02 -1.44627469e-02  6.54941855e-02 
      0.0592882       0.0576701      -0.0877365      -3.94476471e-01 -3.58489776e-01  3.74497432e-01 
     -0.1084482       0.0592498      -0.2385689       1.83416858e-03 -4.46839326e-02  9.60696829e-02 
      0.1315850       0.0247554       0.0234453      -3.87726280e-02  2.60270128e-03  1.48922741e-02 
     -0.0614781       0.1138750      -0.1477483       2.91623174e-02  3.80366662e-04  5.66843339e-02 
     -0.0159019       0.0337660       0.0456920       5.20259883e-02 -4.21192769e-02 -7.56622271e-02 
     -0.2072426      -0.4943953       0.5048543       4.31506720e-01  4.45936785e-01 -4.78481557e-01 
      0.1851784      -0.1102811       0.2315378      -2.43832870e-02  1.08358787e-02 -5.34941237e-02 
# set: 0050 config: 0043  energy: 3.573095e-01 eV/at
      0.2421964       0.2511514       0.3200995       9.23417293e-03 -6.57599675e-02 -2.39720744e-01 
      0.1685878      -0.1460623      -0.0967810       2.53116997e-02  1.56746241e-01  1.01345159e-01 
      0.2609251       0.0155387      -0.2790833      -7.80723224e-03  1.57359610e-02  1.84851747e-01 
     -0.0214811       0.2505671       0.0726554       5.47531972e-02 -5.56441240e-02  2.49868746e-02 
      0.0820312      -0.0222620       0.3134715       3.96885095e-02  5.95361271e-02 -1.39389796e-01 
      0.4266960      -0.1289213       0.1383369      -1.95781725e-01  1.18107035e-01  3.59234225e-02 
      0.1331000       0.3152318      -0.0740772       3.54399479e-02 -1.31493320e-01  1.03432886e-01 
      0.0914433       0.3600546       0.1660842       3.91614300e-02 -9.72279514e-02 -7.14295490e-02 
# set: 0051 config: 0044  energy: 3.600457e-01 eV/at
     -0.0646803       0.1847992       0.2405045       4.38639644e-02 -1.13486667e-01 -9.38481409e-02 
      0.0194405      -0.1392474      -0.0698263      -4.82591568e-03  6.80100326e-02  7.79500873e-02 
     -0.4747471       0.2579271       0.0155349       3.15346392e-01 -2.53953205e-01 -1.80105345e-01 
     -0.0015735      -0.2555693       0.0877984      -1.02214635e-02  1.59549606e-01 -5.31532584e-02 
      0.0442503      -0.0048457      -0.0274099      -7.63790844e-03  1.59843990e-02  5.44643652e-02 
     -0.0618782       0.1002787       0.0243391       1.92493821e-02 -6.63681465e-02  3.71693319e-02 
      0.0743263      -0.0688264       0.2039751      -7.80601972e-02  8.38483212e-03 -1.05346229e-01 
      0.2280807      -0.0912444      -0.0606919      -2.77714254e-01  1.81879149e-01  2.62869190e-01 
# set: 0052 config: 0045  energy: 3.833972e-01 eV/at
     -0.2066822      -0.0928293       0.0511232       2.04727982e-02  3.08036003e-02 -9.37223276e-02 
      0.1557001       0.3116470      -0.0497518      -3.43468336e-02 -1.10877181e-01  4.04280520e-02 
     -0.4368208      -0.0753127      -0.3527075       3.03380323e-01  2.27589334e-01  2.88314042e-01 
      0.0976490      -0.1460617      -0.0053787      -4.17345774e-02  3.91674406e-02  1.20762481e-02 
     -0.1063789      -0.2387581      -0.0192814      -2.60380190e-02  1.01057955e-01 -5.79943695e-02 
      0.3443233       0.1932785      -0.0748736      -1.36781149e-01 -3.24089309e-02  6.84904139e-02 
     -0.0813794       0.3198593      -0.0694723      -8.64373055e-02 -2.53853783e-01 -1.44188479e-01 
     -0.0166953      -0.0640449       0.1865445       1.48476373e-03 -1.47843493e-03 -1.13403580e-01 
# set: 0053 config: 0046  energy: 3.771314e-01 eV/at
     -0.2273133      -0.0618020       0.0088818      -7.58264850e-03  3.43573897e-02 -7.87964734e-02 
     -0.0514415       0.0174484       0.1752002       5.79368234e-02 -6.77300929e-02 -2.59515641e-01 
     -0.0680319       0.0514934       0.0355094      -2.71274828e-02 -1.33110320e-02 -2.88325869e-02 
     -0.0092299      -0.0431787      -0.0928658      -9.92732243e-02  3.09965396e-02  3.73123429e-02 
      0.0377858      -0.4960941      -0.1390985      -2.20794725e-01  3.15907713e-01  1.17157200e-01 
     -0.0508060       0.1088208      -0.2303978      -6.94517008e-02 -9.35902384e-02  1.19612276e-01 
     -0.4611943       0.1492429      -0.0119399       1.98064860e-01 -1.50337449e-02  5.41688014e-02 
     -0.3109652       0.2208545       0.0483794       1.68228097e-01 -1.91596534e-01  3.88940802e-02 
# set: 0054 config: 0047  energy: 2.666637e-01 eV/at
     -0.2948281      -0.0531545       0.1126451       1.73385345e-01  1.34725829e-02 -2.76423182e-02 
      0.1670115       0.0953375      -0.0039346      -7.96058691e-02 -1.20560761e-01 -1.17278529e-02 
      0.0464413      -0.4594489      -0.1601170       3.65442248e-02  1.27670682e-01  7.39358302e-02 
     -0.2135925      -0.2138618      -0.0902645       1.04091747e-01  3.71796011e-02  1.51319740e-02 
      0.4047074      -0.1488579       0.1269065      -2.10939038e-01  2.46102709e-03 -6.99905290e-02 
     -0.0533534      -0.0332820      -0.1089550      -6.33679808e-02 -1.35210636e-02  8.28822469e-02 
     -0.0027982      -0.2430637      -0.0270260       2.26670464e-02  9.31058106e-02 -6.03444135e-02 
     -0.0234675       0.0103829      -0.1481095       1.72245254e-02 -1.39807880e-01 -2.24493737e-03 
# set: 0055 config: 0048  energy: 3.973099e-01 eV/at
     -0.0102961       0.2046132      -0.1768376      -1.04964854e-01 -2.97213945e-01  1.01100827e-01 
     -0.0644419      -0.3257835      -0.0130340       3.53907846e-02  9.59548034e-02  4.89707859e-02 
      0.2677156      -0.1707498      -0.2935804      -7.71862833e-02  3.85170191e-02  6.11139761e-02 
     -0.3190103      -0.2436072      -0.0512604       1.94520979e-01  1.89599768e-01  1.15666659e-01 
     -0.1197273      -0.0308946      -0.1544094       3.05313541e-02 -6.56341165e-02  4.08777892e-02 
      0.1976527      -0.0931451      -0.2123834      -1.40986993e-01  4.24119609e-02  6.61662374e-02 
     -0.0426409      -0.0726007       0.2592158      -4.04056608e-03 -3.38970994e-02 -8.91591536e-02 
     -0.0771546      -0.1080819       0.3957446       6.67355786e-02  3.02616100e-02 -3.44737121e-01 
# set: 0056 config: 0048  energy: 3.973099e-01 eV/at
     -0.0102961       0.2046132      -0.1768376      -1.04964854e-01 -2.97213945e-01  1.01100827e-01 
     -0.0644419      -0.3257835      -0.0130340       3.53907846e-02  9.59548034e-02  4.89707859e-02 
      0.2677156      -0.1707498      -0.2935804      -7.71862833e-02  3.85170191e-02  6.11139761e-02 
     -0.3190103      -0.2436072      -0.0512604       1.94520979e-01  1.89599768e-01  1.15666659e-01 
     -0.1197273      -0.0308946      -0.1544094       3.05313541e-02 -6.56341165e-02  4.08777892e-02 
      0.1976527      -0.0931451      -0.2123834      -1.40986993e-01  4.24119609e-02  6.61662374e-02 
     -0.0426409      -0.0726007       0.2592158      -4.04056608e-03 -3.38970994e-02 -8.91591536e-02 
     -0.0771546      -0.1080819       0.3957446       6.67355786e-02  3.02616100e-02 -3.44737121e-01 
# set: 0057 config: 0048  energy: 3.973099e-01 eV/at
     -0.0102961       0.2046132      -0.1768376      -1.04964854e-01 -2.97213945e-01  1.01100827e-01 
     -0.0644419      -0.3257835      -0.0130340       3.53907846e-02  9.59548034e-02  4.89707859e-02 
      0.2677156      -0.1707498      -0.2935804      -7.71862833e-02  3.85170191e-02  6.11139761e-02 
     -0.3190103      -0.2436072      -0.0512604       1.94520979e-01  1.89599768e-01  1.15666659e-01 
     -0.1197273      -0.0308946      -0.1544094       3.05313541e-02 -6.56341165e-02  4.08777892e-02 
      0.1976527      -0.0931451      -0.2123834      -1.40986993e-01  4.24119609e-02  6.61662374e-02 
     -0.0426409      -0.0726007       0.2592158      -4.04056608e-03 -3.38970994e-02 -8.91591536e-02 
     -0.0771546      -0.1080819       0.3957446       6.67355786e-02  3.02616100e-02 -3.44737121e-01 
# set: 0058 config: 0049  energy: 2.574458e-01 eV/at
     -0.1436008       0.1657328       0.1469527       1.11091253e-01 -1.03925132e-01 -1.37638143e-01 
     -0.1154976      -0.1596482      -0.3877386       3.44332684e-02  1.50734542e-01  7.41687668e-02 
      0.1529532       0.2118871      -0.0676612      -1.57683160e-01 -9.73958645e-02  2.95828314e-02 
      0.0311619      -0.1880443      -0.2953318       4.48886311e-03  1.08689250e-01  3.64980758e-02 
     -0.0802809       0.2277599      -0.1321165       7.00135238e-02 -7.04316389e-02  4.41780214e-02 
     -0.1244891      -0.0974114      -0.0546084       2.46002378e-02  7.88388326e-02 -9.25509737e-02 
      0.1878288      -0.1503123      -0.1463774      -7.24936622e-02  6.75025310e-02 -1.98528744e-02 
     -0.1133335       0.3159904      -0.3002784      -1.44503242e-02 -1.34012520e-01  6.56142954e-02 
# set: 0059 config: 0050  energy: 5.363098e-01 eV/at
     -0.0843185       0.0964932      -0.1201629       4.89976468e-02 -7.20914710e-02 -2.89464598e-02 
     -0.1968756      -0.0075939       0.0337491       1.07914141e-02  5.53762270e-02  9.29925701e-02 
     -0.0853569      -0.0540517      -0.1465231      -3.45198760e-02  3.34596273e-02 -7.06727715e-03 
      0.2377466       0.1053763       0.0400736      -1.35063425e-01 -1.67289792e-01  9.25726282e-02 
     -0.5293043      -0.1332294      -0.0377335       1.93005100e-01  2.36922198e-01 -1.17852535e-01 
      0.4300003       0.1287953      -0.0394659      -2.16470003e-01 -1.87173468e-01 -3.92569676e-02 
     -0.2336914      -0.6769842      -0.1156379       8.00070182e-02  3.09858850e-01 -2.32195866e-02 
     -0.0670292       0.3475304      -0.0860719       5.32521249e-02 -2.09062170e-01  3.07776282e-02 
# set: 0060 config: 0051  energy: 5.138848e-01 eV/at
     -0.3852339       0.0643784       0.2494964       1.29529477e-01 -5.53741298e-02 -5.55048146e-02 
     -0.1076926      -0.2738835       0.0558727      -4.82790397e-02  1.83065701e-01 -4.46089955e-02 
      0.0095593      -0.3853361       0.1226211      -5.02358837e-02  1.43070522e-01 -1.91749767e-02 
      0.1674408      -0.1989621       0.1633943      -1.43650707e-01  1.21335618e-01 -1.42178546e-01 
      0.0454098      -0.0647531      -0.0189570       3.11536084e-02  3.03244188e-02  1.36157875e-01 
     -0.1641067       0.1899170       0.1713205       5.42052220e-02 -2.52176000e-01 -1.12785186e-02 
      0.1221146      -0.3189124       0.2247551      -8.97455482e-02  1.10624034e-01 -1.21162180e-01 
      0.0531456       0.3982682      -0.3537691       1.17022871e-01 -2.80870165e-01  2.57750156e-01 
# set: 0061 config: 0052  energy: 2.997859e-01 eV/at
      0.0384009      -0.1120240      -0.1563626       5.75302186e-02  6.41351246e-02  1.06241240e-01 
     -0.1245551      -0.4348700       0.0631525       8.57311121e-02  1.77728398e-01 -9.49542847e-03 
      0.2265592       0.0589844      -0.0358418      -2.29446467e-02 -5.65758937e-02 -2.60557853e-02 
      0.0551184      -0.1930887      -0.0920229      -9.56850484e-02  1.24710982e-01 -4.60272594e-02 
      0.3531357      -0.1348457       0.1308418      -1.82796659e-01 -2.84778987e-02 -1.21622646e-01 
      0.1348369       0.3556907      -0.2905053      -4.00402900e-02 -2.33924364e-01  6.59604032e-02 
     -0.0627738       0.0410212       0.0532943       8.66567988e-02 -3.42325433e-02  1.70537641e-03 
     -0.0288477      -0.1939296      -0.1589789       1.11548515e-01 -1.33638051e-02  2.92940993e-02 
# set: 0062 config: 0053  energy: 4.806110e-01 eV/at
      0.0580615      -0.0009684       0.1173084      -6.43888647e-02  9.03184901e-02 -4.62194170e-02 
     -0.0702325       0.1468240       0.0206571       5.59709413e-02  3.15994710e-02 -5.64332040e-03 
      0.1521160       0.2157971       0.3550252       4.14282358e-02 -1.27503584e-01 -2.36480540e-01 
     -0.1791553       0.3358112      -0.2634311      -8.80418711e-03 -1.62604231e-01  1.36069368e-01 
     -0.2827482       0.0446867       0.0557857       2.89890720e-01  4.84683612e-02  5.79405063e-03 
     -0.1027714       0.1635081       0.3576301       1.03661890e-01 -2.07575436e-03 -1.77380580e-01 
      0.2042339       0.2518595      -0.1870163      -1.09529179e-01 -2.82022828e-02  9.24045440e-02 
      0.3072441       0.1161564      -0.3676807      -3.08229557e-01  1.49999529e-01  2.31455894e-01 
# set: 0063 config: 0054  energy: 4.449930e-01 eV/at
     -0.0927051      -0.1835590       0.1552441       1.34264793e-02  7.07766806e-02 -5.44594245e-02 
     -0.0902681      -0.1768784      -0.2043954       2.33849475e-02  9.80234799e-02  7.38058937e-02 
      0.0878845       0.4233819      -0.3868692      -2.84494314e-01 -4.11263089e-01  3.52726977e-01 
     -0.2796681      -0.2533951      -0.2056129       1.01107249e-01  1.63176179e-01  5.43593418e-02 
      0.1434302       0.1378213      -0.1054996      -6.46923822e-02 -6.23654556e-02 -7.14000196e-03 
     -0.3785050       0.1359383       0.0929524       3.22356082e-01  2.06142492e-01 -3.43186789e-01 
      0.0475884      -0.0269844       0.0445060      -2.94006104e-02 -1.19494862e-02 -6.33921984e-02 
     -0.0697951      -0.0587034      -0.1080303      -8.16874505e-02 -5.25408003e-02 -1.27137985e-02 
# set: 0064 config: 0055  energy: 3.950898e-01 eV/at
     -0.1389831      -0.0342250       0.1441625       2.02984197e-01 -5.22605199e-02 -9.74221178e-02 
     -0.0818834      -0.0754313       0.0839088       7.92256300e-02  4.38369818e-02  7.24825977e-03 
      0.3459486      -0.0374820      -0.0740753      -9.69656523e-02  7.00283957e-02 -1.74044979e-02 
     -0.2026236       0.1047592       0.0852496       1.66556833e-01 -8.05779502e-02 -8.66304750e-02 
      0.0830534       0.2778321       0.1313155      -5.19155835e-02 -1.80052092e-01 -1.21481655e-01 
      0.3821562       0.0704801      -0.3265182      -2.13396488e-01  1.56954893e-01  2.41602161e-01 
      0.1955728       0.1346256      -0.2432527      -7.59767139e-02  1.54560834e-02  2.32484122e-01 
      0.0917179      -0.0655044       0.2313334      -1.05122219e-02  2.66142090e-02 -1.58395797e-01 
# set: 0065 config: 0056  energy: 3.363865e-01 eV/at
     -0.2673598       0.1760495       0.0818517       2.12151669e-01 -1.61110073e-01 -1.24380693e-01 
      0.1354145       0.0525917       0.1744920       3.04893021e-02 -4.69980103e-02 -1.04382091e-01 
      0.1723029      -0.0343366      -0.1889366      -4.50799890e-02 -1.58337882e-02  4.03236007e-02 
     -0.1083000      -0.1928988      -0.3804898       1.91147554e-01  1.43218729e-01  1.44069718e-01 
      0.1434621       0.1128838      -0.1220012      -8.00738094e-03 -3.51586072e-02  6.92632755e-03 
     -0.0159857      -0.0755633      -0.1710077      -2.52487462e-02  1.53614165e-01  1.34068448e-01 
      0.4397920      -0.2467435      -0.1605675      -1.65625776e-01  5.41016855e-02  7.17127749e-02 
      0.1776816      -0.1462280       0.1142027      -1.89826632e-01 -9.18341006e-02 -1.68338085e-01 
# set: 0066 config: 0057  energy: 5.005718e-01 eV/at
     -0.0905575      -0.4132850      -0.0222273       1.78822893e-01  2.30712275e-01  1.55567983e-01 
      0.1598518       0.1100224      -0.1123419      -1.75942425e-01 -1.77302436e-01  1.56865234e-01 
      0.0867565      -0.3093731      -0.0315687      -5.25489307e-02  1.63346049e-01  1.54792085e-02 
      0.1590998       0.2612882       0.1382084       2.03559191e-02 -1.15587044e-01 -7.69025153e-02 
      0.0535690       0.2955282       0.0428693      -6.06122230e-03 -1.90057956e-01 -9.67501698e-02 
     -0.2623716      -0.1830711      -0.1004740       1.61921844e-01 -5.35834041e-03  1.78970542e-02 
      0.1981282      -0.4295815       0.2852128      -2.52576412e-02  2.16158786e-01 -1.47935057e-01 
      0.2608305       0.3068794       0.0921156      -1.01290437e-01 -1.21911334e-01 -2.42217385e-02 
# set: 0067 config: 0058  energy: 4.056619e-01 eV/at
      0.0783411       0.0719875      -0.2149858      -1.07335806e-01 -6.90861823e-02  1.11596565e-01 
      0.3374017      -0.1221362      -0.0572738      -2.01987821e-01 -7.79671504e-02  8.33985159e-02 
     -0.2176498      -0.0388817       0.3040457       1.29939636e-01 -7.53717538e-02 -2.48981258e-01 
      0.0879978       0.2825024       0.1109555      -9.49439767e-02 -1.51378042e-01  7.97898127e-02 
     -0.4206405      -0.0934695      -0.0525493       2.71548451e-01  4.04485782e-02 -3.38407866e-03 
     -0.1518740      -0.0080165       0.0125058       9.92178228e-02  1.53201154e-04 -1.00383051e-02 
     -0.1844166      -0.0650578       0.1967691       5.57935848e-02  1.17645603e-01 -1.48768862e-01 
      0.1759881      -0.1932598      -0.0138341      -1.52231891e-01  2.15555747e-01  1.36387611e-01 
# set: 0068 config: 0059  energy: 3.874674e-01 eV/at
      0.5071137      -0.0823388       0.2476236      -2.73540860e-01  1.22536874e-01 -1.65993313e-01 
     -0.0844915      -0.0802812       0.0187728       6.51452205e-02 -2.04754694e-02 -3.65347242e-02 
      0.1714297       0.1599839      -0.1009704      -1.00215378e-01 -8.07562398e-02  6.39078459e-02 
      0.1938309      -0.1909446      -0.0356143      -6.09447682e-02  1.59056747e-01 -3.37779440e-02 
     -0.1460637      -0.1741425      -0.3707640       3.92054317e-02  5.60539819e-02  9.47969445e-02 
     -0.1158662      -0.0855251      -0.1952852       1.77037671e-01 -3.69902224e-02  8.64061383e-02 
     -0.0401222       0.0284644      -0.0413480       1.50010472e-01 -1.62067488e-01  1.81144441e-01 
     -0.0235729       0.0825677       0.3917310       3.30221070e-03 -3.73581831e-02 -1.89949388e-01 
# set: 0069 config: 0060  energy: 2.898706e-01 eV/at
     -0.2646612       0.1544682      -0.0215786       8.72575860e-02 -5.74017380e-02  1.12625187e-01 
     -0.1283569      -0.2592178      -0.0524477       1.88095401e-01  2.36174129e-01  1.61605720e-01 
     -0.0109650       0.1536010       0.1302531      -1.31076971e-02 -6.36352287e-02 -3.40793538e-02 
      0.1707711      -0.2210106       0.0628565      -1.01077494e-01  1.22370283e-01 -4.55176898e-02 
      0.0417807       0.2160292       0.0946963      -7.68813322e-02 -1.59219399e-01 -6.11883516e-02 
      0.0620467       0.1908158       0.1971029      -1.51305153e-01 -1.45320526e-01 -1.16545558e-01 
      0.1203534       0.1122810      -0.0663914      -2.77541530e-02 -6.86397463e-02  2.55598072e-02 
     -0.2154575      -0.2313027       0.1127466       9.47728424e-02  1.35672226e-01 -4.24597614e-02 
# set: 0070 config: 0061  energy: 2.932894e-01 eV/at
     -0.0904017      -0.2297399       0.0973210      -2.64295599e-03  1.42928694e-01 -7.16722872e-02 
     -0.1313636      -0.1024238      -0.1699438       1.26366450e-01  4.06603413e-02  1.17454026e-01 
     -0.1417318      -0.2886605      -0.1148932       7.79647277e-02  1.63215455e-01  8.28347708e-02 
     -0.0432521       0.2807057       0.0872042       2.86572276e-02 -5.85510753e-02 -8.97308677e-02 
      0.1371766      -0.0602499      -0.2004943      -7.79511557e-02  6.77858044e-02  4.18107432e-02 
      0.0378074       0.4039275      -0.1871042      -7.46345816e-02 -2.42322042e-01 -2.24759125e-02 
     -0.0956651      -0.0012613       0.0117410      -2.17510218e-02  1.09294455e-02 -5.38263076e-04 
      0.1499273       0.1855472       0.1171121      -5.60086909e-02 -1.24646623e-01 -5.76822094e-02 
# set: 0071 config: 0062  energy: 3.485043e-01 eV/at
      0.1414848       0.0167514      -0.0822790      -6.99819724e-02 -7.97992907e-02  1.89418384e-01 
     -0.1944297      -0.1256413       0.1083949       1.30004465e-01  1.14610346e-01  2.29526032e-02 
      0.2090551       0.4930066       0.3314868       4.59690299e-02 -1.91311131e-01 -1.61004837e-01 
     -0.0783221      -0.0082430      -0.2429654       3.40356535e-02  1.44901409e-02  1.04264643e-01 
      0.0625898       0.2229818       0.1611453      -6.09885070e-02 -1.11841318e-01 -7.36440259e-02 
      0.2094267       0.0871187       0.0467835      -1.15764063e-01 -4.62745808e-03 -7.51479837e-02 
      0.1133486      -0.0502911       0.0073315      -2.30441261e-03 -1.49186461e-02  3.79768650e-02 
     -0.1021930      -0.3588562       0.0367612       3.90298063e-02  2.73397356e-01 -4.48156480e-02 
# set: 0072 config: 0063  energy: 2.586574e-01 eV/at
     -0.1717825      -0.1128386       0.2830130       5.52726244e-02 -1.34853490e-02 -1.06104251e-01 
     -0.1869522      -0.0095589       0.1231426       6.23643016e-02 -1.99921625e-02  1.84321423e-02 
     -0.1662822      -0.0131221      -0.3852580       9.86992878e-03 -1.84635032e-02  1.59210453e-01 
     -0.0478947      -0.0449746       0.0593194       6.53874379e-02 -5.29178941e-02 -1.61200210e-02 
     -0.2522096      -0.1301778       0.1339081       9.03116989e-02  1.26996765e-01 -9.04197762e-02 
     -0.0154709       0.0343870       0.0498980       1.54309452e-02 -5.69196721e-02  3.53723590e-02 
      0.0461469      -0.3655269      -0.1122072      -1.53083665e-01  1.68131111e-01  1.27542973e-01 
      0.1322081       0.0508076       0.2209931      -1.45553272e-01 -1.33349295e-01 -1.27913879e-01 
# set: 0073 config: 0064  energy: 4.184834e-01 eV/at
      0.0573022       0.1555306      -0.1505165      -1.22473045e-01 -1.02438341e-01  5.37014114e-02 
      0.2722886      -0.3205551      -0.2675359      -3.02509469e-01  1.96290297e-01 -1.28728438e-01 
     -0.3776858      -0.1691871       0.1430754       1.07754205e-01  3.35058308e-02 -3.26390337e-02 
     -0.1000560      -0.2134229       0.1046508      -8.45912470e-02  1.44496947e-01 -1.32312109e-01 
     -0.0412256      -0.2290487      -0.0719317      -3.20667199e-02  6.98920367e-02  2.46996562e-02 
     -0.2105219       0.0927809      -0.1554012       7.31190073e-02 -1.79887736e-01  8.89971555e-02 
     -0.2150319      -0.0158956       0.0601691       8.39207991e-02  5.48983571e-02 -1.03869523e-01 
     -0.4141896       0.1668156      -0.2020603       2.76846470e-01 -2.16757392e-01  2.30150880e-01 
# set: 0074 config: 0065  energy: 4.181209e-01 eV/at
     -0.3121543      -0.4327368      -0.4155827       1.43324145e-01  1.61640022e-01  1.36047902e-01 
      0.1203806      -0.2852106       0.0748133       2.01283946e-02  1.29992483e-02 -1.59888040e-01 
      0.3522404       0.0764975       0.0028107      -1.28525624e-01 -1.30050401e-01 -1.29458736e-02 
     -0.0669985       0.4209701      -0.1295757      -4.20267586e-03 -1.94703958e-01  2.99202480e-02 
      0.0762520      -0.4519152      -0.3249953      -5.32482091e-02  9.77113894e-02  5.41156009e-02 
      0.0092373      -0.2100719       0.0199161       8.08281369e-02  9.23619914e-02 -1.83169043e-01 
     -0.0844249       0.1465073      -0.0842427      -4.17246159e-03 -2.81636399e-02 -2.17144316e-02 
      0.2716527      -0.0733428      -0.2861146      -5.41317057e-02 -1.17946530e-02  1.57633639e-01 
# set: 0075 config: 0065  energy: 4.181209e-01 eV/at
     -0.3121543      -0.4327368      -0.4155827       1.43324145e-01  1.61640022e-01  1.36047902e-01 
      0.1203806      -0.2852106       0.0748133       2.01283946e-02  1.29992483e-02 -1.59888040e-01 
      0.3522404       0.0764975       0.0028107      -1.28525624e-01 -1.30050401e-01 -1.29458736e-02 
     -0.0669985       0.4209701      -0.1295757      -4.20267586e-03 -1.94703958e-01  2.99202480e-02 
      0.0762520      -0.4519152      -0.3249953      -5.32482091e-02  9.77113894e-02  5.41156009e-02 
      0.0092373      -0.2100719       0.0199161       8.08281369e-02  9.23619914e-02 -1.83169043e-01 
     -0.0844249       0.1465073      -0.0842427      -4.17246159e-03 -2.81636399e-02 -2.17144316e-02 
      0.2716527      -0.0733428      -0.2861146      -5.41317057e-02 -1.17946530e-02  1.57633639e-01 
# set: 0076 config: 0066  energy: 2.694975e-01 eV/at
     -0.2155864       0.1148175      -0.1940544       1.62600786e-01 -1.34852979e-01 -4.09033759e-02 
      0.1790063      -0.0487446       0.2768494      -2.82937599e-02  2.16602961e-02 -1.65471588e-01 
      0.0986901       0.0796602      -0.0292548      -7.55601013e-03 -3.05942030e-02  1.92168786e-02 
      0.0708296      -0.0231199       0.1261692       1.14767915e-02  2.42962392e-02  5.49522907e-02 
     -0.0078234      -0.3972204       0.0088520      -1.23804082e-02  1.96021482e-01 -3.15467684e-02 
      0.2254566      -0.1712893      -0.2069527      -1.12874535e-01  8.33265670e-02  2.00045932e-01 
      0.0303109       0.0588422       0.0310282      -1.29818889e-02  3.84596573e-02  3.31519952e-02 
      0.1189224       0.2990820       0.2030826       9.02453025e-06 -1.98317059e-01 -6.94453643e-02 
# set: 0077 config: 0067  energy: 3.340041e-01 eV/at
      0.0372203       0.3950210       0.0784626      -6.58776318e-04 -1.63576692e-01 -5.16810998e-02 
     -0.0757172       0.0961523      -0.0464230      -1.19922588e-01  6.42783709e-02 -2.23266221e-02 
     -0.1752587       0.4830090      -0.0111943      -6.16529474e-02 -1.88947507e-01  9.38944098e-02 
     -0.0188092      -0.1538346       0.1144640      -2.48892122e-02  1.36851616e-01 -7.53018324e-02 
     -0.1579632       0.1860519       0.0214872       2.87767662e-02  2.42479988e-02 -1.30197438e-02 
     -0.3013490      -0.2935321      -0.1650234       1.14444273e-01  1.20882897e-01  4.30368922e-02 
     -0.0081269      -0.2101166       0.0401784      -1.34664007e-02  1.56505443e-01 -7.24714779e-03 
     -0.2840486       0.5110585      -0.0145176       7.73688859e-02 -1.50242127e-01  3.26451439e-02 
# set: 0078 config: 0068  energy: 4.602793e-01 eV/at
      0.0296948      -0.0804466      -0.0289768       3.55025522e-02 -1.19459099e-02 -5.05219651e-02 
     -0.0823850      -0.0599992      -0.0624657       7.78332877e-02 -6.66920133e-02 -2.91261823e-02 
      0.0118242      -0.3923194       0.2241173      -2.74267127e-01  2.57911529e-01 -3.28927090e-01 
      0.1493619       0.1635623      -0.2509457       4.71821756e-03 -1.23712301e-01  1.74090112e-02 
     -0.0001238       0.1345073      -0.5167247       2.85379250e-01 -2.58110689e-01  3.77859667e-01 
      0.1782078      -0.3688895       0.1987905      -6.42482002e-02  7.45780611e-02 -1.10450859e-01 
     -0.0700337      -0.4067163      -0.2547307       1.36274288e-02  7.92159178e-02 -1.95680076e-03 
      0.2496474      -0.0958157      -0.2379940      -7.85454096e-02  4.87554049e-02  1.25714219e-01 
# set: 0079 config: 0069  energy: 2.805225e-01 eV/at
     -0.2604321       0.3102318      -0.2539555       9.28454131e-02 -1.08009626e-01  3.84134165e-02 
     -0.2395590       0.0857627      -0.2064187       2.02138326e-01  2.79052804e-03  1.92853395e-02 
      0.0215332       0.0781110       0.1683214       5.16653221e-02 -3.52831324e-02 -6.90759182e-02 
     -0.0820891      -0.1049899      -0.0278567       2.42875145e-02  5.70802814e-02 -1.96057486e-02 
      0.2266545      -0.2285804      -0.0478193      -1.38173564e-01  1.54078503e-01  8.58243359e-02 
      0.1008292       0.2006964      -0.1045476      -1.09823658e-01 -1.31669162e-01 -2.02532379e-02 
      0.3431264      -0.0596067       0.1833705      -1.02840161e-01  5.45563506e-02 -6.47029793e-02 
     -0.0480559       0.0050346      -0.1250294      -2.00991924e-02  6.45625738e-03  3.01147921e-02 
# set: 0080 config: 0070  energy: 4.411531e-01 eV/at
     -0.2120845      -0.2417910       0.2240014       5.05864717e-02  1.09297962e-01 -5.52744660e-02 
      0.2072816      -0.3561487      -0.0259982      -5.68006015e-02  9.05393389e-02 -2.74271362e-02 
      0.2659705      -0.2396043       0.2769870      -1.98270949e-01  1.56147110e-01 -1.84247731e-01 
     -0.0351947      -0.1748070      -0.1812977       8.79766994e-02  2.25267180e-01  8.47346827e-02 
      0.2579641       0.1285500      -0.1507248       6.06887416e-02 -1.92680465e-01  3.85593297e-02 
     -0.2615097       0.0995118      -0.2532924       1.28794190e-01 -1.28375824e-01  1.99876772e-01 
     -0.0846470      -0.1215161      -0.2306216       7.41648105e-02 -3.59091045e-02  1.58539251e-01 
      0.1458024       0.0483448       0.3006588      -1.47139363e-01 -2.24286198e-01 -2.14760702e-01 
# set: 0081 config: 0071  energy: 2.428177e-01 eV/at
     -0.0100160       0.0099687       0.1071054       5.53467012e-02 -6.70193233e-02 -3.48356222e-02 
     -0.0967417      -0.1773518       0.2817431      -5.40804172e-02  1.66710171e-01 -1.39693288e-01 
      0.1221495       0.3856850      -0.1086120      -1.24940549e-01 -1.97901914e-01  1.17441452e-01 
      0.0903736      -0.1783661      -0.0835517      -6.42362053e-02  2.15963963e-02  7.54181681e-02 
     -0.1549961      -0.0071993       0.2713027       6.82355875e-02  4.36314280e-02 -1.14725812e-01 
      0.1279126      -0.1515842       0.0302401       2.35264762e-02  1.28156537e-01 -2.52225808e-02 
      0.1928270      -0.0474086       0.0082067      -4.14217736e-02  7.12107429e-03  3.57842421e-02 
     -0.1932516       0.0874630      -0.0648133       1.37570180e-01 -1.02294369e-01  8.58334398e-02 
# set: 0082 config: 0072  energy: 2.739404e-01 eV/at
     -0.2329413      -0.1862150      -0.3098013       1.29320219e-01  1.15466283e-01  1.60286399e-01 
      0.2578256      -0.1269737      -0.0250240      -1.30883108e-01  3.33503940e-02 -8.35346038e-04 
     -0.0878037       0.1544055      -0.1124161       4.52790114e-02 -5.63467874e-02  1.78115310e-02 
     -0.2055151      -0.1629022       0.0711548       1.31063398e-01  8.19959165e-02 -1.25307654e-02 
      0.1695503      -0.0932933      -0.1511811      -1.62774989e-01 -1.24684533e-02 -5.57011459e-02 
      0.1110972       0.1820888      -0.0768583      -5.31708878e-02 -1.39951377e-01 -9.84408074e-03 
      0.0118683      -0.2318984       0.0641841       2.58572235e-02  1.74737487e-01 -6.16821139e-02 
     -0.0369429       0.1500628       0.0934538       1.53091321e-02 -1.96783464e-01 -3.75044775e-02 
# set: 0083 config: 0073  energy: 3.696629e-01 eV/at
      0.1366928      -0.2696982      -0.4801996      -1.86250451e-02  7.88864752e-02  1.56856533e-01 
     -0.0469368      -0.1407588       0.2943903       4.82829019e-02  1.03953153e-02 -1.80143955e-01 
      0.1939678      -0.1194193       0.2449153      -1.56456004e-01  1.36386209e-01 -1.93536870e-01 
     -0.2399489      -0.1235503       0.2604850       9.71934981e-02 -9.34032775e-03 -5.68773677e-02 
      0.0838911      -0.0092830      -0.3792024       1.07830177e-02 -8.67718949e-02  2.40692181e-01 
      0.0527390       0.0583475       0.1713485      -2.14371725e-02 -5.73906326e-02 -8.86929491e-02 
      0.0141579       0.1100019      -0.0946582      -1.29502841e-02 -2.09015258e-02  2.86864333e-02 
      0.0343761       0.0245789      -0.0683497       5.32090877e-02 -5.12636187e-02  9.30159959e-02 
# set: 0084 config: 0074  energy: 2.127883e-01 eV/at
      0.0305467       0.1184586      -0.0195017       1.80571411e-02  2.29114107e-02  3.83182647e-02 
     -0.0787899       0.0190208      -0.0665799       3.61532254e-02  1.18171057e-05  3.80477875e-02 
      0.1772116      -0.0684179       0.3560828       2.98006655e-02 -6.05436323e-02 -1.88231580e-01 
      0.0804119       0.1152455      -0.0558163      -1.05190678e-01 -7.92793847e-02  7.08702720e-02 
      0.0635208       0.0253191       0.3576016       5.56305777e-02 -2.04383841e-02 -1.17356565e-01 
     -0.1454015       0.0663477       0.0760114       4.53845637e-02 -5.62534251e-03 -1.92012993e-02 
     -0.1230466       0.0966211      -0.0028389       5.56449572e-02 -4.00414366e-02  1.31082681e-02 
      0.1438852      -0.2117379      -0.3357958      -1.35480452e-01  1.83004953e-01  1.64444851e-01 
# set: 0085 config: 0075  energy: 2.397665e-01 eV/at
     -0.1304163      -0.1235074      -0.1259479       1.44852710e-01  6.28088286e-02  1.11304842e-01 
     -0.0410063      -0.1548992      -0.0725845       7.35501685e-02  9.57575344e-02  4.03524389e-02 
      0.1664586       0.2741673       0.0076616      -1.05637751e-01 -1.21666451e-01  3.83279178e-02 
      0.0042618       0.0416922      -0.0646020       1.17460835e-01 -5.90361343e-02 -4.73003315e-02 
      0.1104459       0.1927080      -0.0867942      -8.19198025e-02 -1.09931499e-01 -5.06732939e-02 
      0.1726308      -0.1575433       0.1081350      -2.75425069e-02  4.12200948e-02 -1.23005891e-01 
      0.3409936      -0.3327553      -0.0270981      -1.38655530e-01  1.65222391e-01  8.70595834e-02 
     -0.0774383       0.1438573       0.1536520       1.78918770e-02 -7.43747639e-02 -5.60652654e-02 
# set: 0086 config: 0076  energy: 4.052953e-01 eV/at
      0.1039734       0.1220597       0.0555615       2.81764920e-02 -1.50440959e-01 -4.99265223e-02 
     -0.3349475       0.1091432      -0.4088076       1.49939755e-01  4.44789202e-02  1.20927450e-01 
      0.1802419       0.3298441      -0.0158259      -9.02062096e-02 -1.78773497e-01  3.52207802e-02 
      0.0057320       0.1088266      -0.0838047       8.61907502e-02 -1.44603772e-01 -9.70980445e-02 
     -0.0614163       0.1060121       0.0028551       6.61334103e-02 -3.61033157e-02 -4.62411493e-02 
      0.2212176      -0.3155858       0.0464894      -3.22662478e-02  1.70425993e-01 -5.18202397e-02 
      0.3779166      -0.1855729      -0.1732614      -1.94605372e-01  1.18168164e-01  1.51446677e-01 
      0.0919937      -0.2783468       0.1093540      -1.33625783e-02  1.76848467e-01 -6.25089519e-02 
# set: 0087 config: 0077  energy: 3.920919e-01 eV/at
      0.1577877       0.2227386      -0.3571976      -3.15556537e-02 -4.25691475e-02  1.56598674e-01 
      0.0010877       0.5216578       0.2582309      -1.74420787e-02 -2.90137639e-01  7.83068482e-03 
      0.2372957       0.0107980       0.1031290      -1.42366004e-02 -3.81881727e-02 -6.41644346e-02 
      0.0535811       0.2497796       0.2996476       2.57143222e-03 -1.21046316e-01 -4.49554686e-02 
      0.0489923      -0.0781964       0.2531125      -4.94206733e-02  1.36329218e-01  1.04817004e-02 
      0.1146991      -0.0105263       0.0107915       1.70172595e-02  2.53576306e-02  2.02164141e-03 
     -0.2447335      -0.2591125       0.1698643       1.60745768e-01  2.30270083e-01 -1.36166679e-01 
      0.3713374      -0.0436159      -0.1379061      -6.76794539e-02  9.99843435e-02  6.83538823e-02 
# set: 0088 config: 0078  energy: 4.019773e-01 eV/at
      0.0838593      -0.0171913      -0.0777245      -1.52764054e-01  7.09851946e-02 -1.05553157e-01 
      0.1752674      -0.2130336      -0.1283736      -1.32070289e-01  5.49706474e-02 -1.11958704e-03 
      0.3212074      -0.0131734      -0.1515153      -1.14852968e-01 -1.41430293e-02  2.30447138e-02 
     -0.2661453       0.0913920      -0.2742752      -1.62297665e-02 -6.07004607e-02  1.25055359e-01 
     -0.1531505      -0.1007877       0.2404891       4.97176855e-02  5.57613830e-02 -1.96022794e-01 
      0.0566819       0.0111102      -0.3229762      -7.93746874e-02  3.06523979e-02  9.61183006e-02 
     -0.6086855       0.0968633      -0.1454612       3.02606274e-01 -1.26004819e-01  1.57233842e-01 
     -0.1608526      -0.0598998      -0.0227849       1.42967805e-01 -1.15213136e-02 -9.87566772e-02 
# set: 0089 config: 0079  energy: 6.038593e-01 eV/at
      0.0302730      -0.3299854      -0.0607940       1.94274959e-01  1.98183525e-01  1.75299276e-01 
      0.2889359      -0.0972873       0.2941421      -5.97815462e-02  1.69944281e-02 -8.25507822e-02 
     -0.1242361       0.1486947       0.0468060       1.81618792e-01 -2.13939235e-01 -1.35986705e-01 
     -0.1777883       0.0098479       0.0896340       2.62536507e-01 -1.50784581e-01 -1.36349965e-01 
      0.2009019       0.1182083       0.3020360      -1.45530437e-01 -2.26116539e-01 -2.65572616e-01 
     -0.1426085      -0.3850048      -0.2410202       1.05682018e-01  1.16537213e-01  1.06790495e-01 
      0.3425171      -0.2064602      -0.1308876      -2.63047352e-01  1.45850518e-01  2.59146587e-01 
      0.4839275      -0.0986764      -0.0057390      -2.75752941e-01  1.13274672e-01  7.92237090e-02 
# set: 0090 config: 0080  energy: 4.375806e-01 eV/at
     -0.1423704      -0.0337774      -0.0557750       6.24975284e-02 -2.03392738e-02 -2.63171949e-02 
     -0.0305815       0.5762840      -0.2263193      -1.28083699e-01 -2.64917341e-01  1.44944093e-01 
      0.0580026      -0.0733798       0.0898719      -2.01409056e-03 -1.32109434e-02 -6.96905135e-02 
      0.1393456      -0.3430900       0.0984843      -2.21806813e-01  1.13878265e-01 -1.34268572e-01 
     -0.2799129      -0.3416962       0.1274350       1.27169458e-01  1.68732737e-01 -4.68093901e-02 
     -0.0568207       0.0480399      -0.1690195       1.72691432e-01 -1.71123710e-01  1.72040491e-01 
      0.1459719      -0.2847759       0.0606528       6.92773430e-02  2.04322069e-01 -1.41472038e-01 
     -0.0015804      -0.0205095      -0.3565559      -7.97311585e-02 -1.73418046e-02  1.01573124e-01 
# set: 0091 config: 0080  energy: 4.375806e-01 eV/at
     -0.1423704      -0.0337774      -0.0557750       6.24975284e-02 -2.03392738e-02 -2.63171949e-02 
     -0.0305815       0.5762840      -0.2263193      -1.28083699e-01 -2.64917341e-01  1.44944093e-01 
      0.0580026      -0.0733798       0.0898719      -2.01409056e-03 -1.32109434e-02 -6.96905135e-02 
      0.1393456      -0.3430900       0.0984843      -2.21806813e-01  1.13878265e-01 -1.34268572e-01 
     -0.2799129      -0.3416962       0.1274350       1.27169458e-01  1.68732737e-01 -4.68093901e-02 
     -0.0568207       0.0480399      -0.1690195       1.72691432e-01 -1.71123710e-01  1.72040491e-01 
      0.1459719      -0.2847759       0.0606528       6.92773430e-02  2.04322069e-01 -1.41472038e-01 
     -0.0015804      -0.0205095      -0.3565559      -7.97311585e-02 -1.73418046e-02  1.01573124e-01 
# set: 0092 config: 0081  energy: 4.433861e-01 eV/at
     -0.1848612      -0.4256285      -0.0769209       1.05471837e-01  2.00466364e-01  1.09190944e-01 
     -0.0723463      -0.1549058       0.4034583       6.31519031e-03  1.04360570e-01 -5.94274488e-02 
      0.2559772       0.2638467      -0.2994893      -1.87979168e-01 -1.51757187e-01  1.59276937e-01 
     -0.0647543       0.1293887       0.0181682      -8.47982434e-02 -1.12698923e-01  8.60612264e-02 
     -0.2889444       0.1087488       0.2898928      -6.01458676e-02 -8.41073186e-02 -2.09174731e-01 
      0.3319263       0.0627729       0.1974084      -8.41266111e-02  5.48509261e-02 -1.40867169e-01 
     -0.3194306       0.0590832       0.1201068       1.51094160e-01 -8.40633807e-02  3.42030381e-02 
     -0.2676856      -0.3373380       0.0303288       1.54168703e-01  7.29489500e-02  2.07372029e-02 
# set: 0093 config: 0082  energy: 2.555190e-01 eV/at
     -0.0346374       0.2777261       0.0033822       2.73435811e-02 -1.65130331e-01  3.35978326e-03 
     -0.0142535      -0.0188973      -0.1634872       1.20850327e-02  6.27158102e-03  4.37344274e-02 
      0.3175856      -0.0487156       0.0595584      -1.54043828e-01 -4.34618946e-02  3.91811386e-02 
      0.0238750      -0.0542435       0.2387301       6.96291717e-02 -7.44537814e-02 -1.93375311e-01 
      0.1011142      -0.0784525       0.0531966       1.31636225e-02  3.17128842e-02  5.09842165e-03 
     -0.1157624      -0.1880779      -0.0066704       7.39255362e-02  6.64213917e-02  2.67435021e-02 
      0.3063040      -0.2561473      -0.0488618      -1.56367910e-01  2.06620879e-01  1.34999134e-01 
     -0.2338654       0.1431302       0.0816012       1.14264794e-01 -2.79807278e-02 -5.97410951e-02 
# set: 0094 config: 0083  energy: 5.758689e-01 eV/at
      0.0975065      -0.1356409      -0.5737730       1.05692040e-01  1.28032745e-01  2.43775269e-01 
      0.2839384      -0.1158071       0.1201830      -1.53317312e-01  6.65928939e-02 -8.90795065e-02 
     -0.1389377      -0.0505211      -0.0154023       5.21133014e-02 -5.29272998e-02  1.09666597e-01 
      0.2278646       0.2559800      -0.0849595      -1.84955351e-01 -2.28059392e-01  1.95187519e-01 
      0.0699748      -0.0839979       0.3333702       9.57006787e-02  4.23149150e-02 -2.59427549e-01 
     -0.3824521      -0.0900336       0.4105466       2.34614703e-01  1.25738748e-01 -1.92249736e-01 
      0.1882804      -0.0107755       0.1673124      -1.28274261e-01 -4.15650459e-02 -1.44479257e-01 
      0.1703423       0.0673565      -0.1527268      -2.15738006e-02 -4.01275646e-02  1.36606663e-01 
# set: 0095 config: 0084  energy: 2.822083e-01 eV/at
      0.1016162       0.0082364       0.0485519      -1.15926061e-01  1.57440419e-02 -4.64141641e-02 
     -0.1983192       0.1912840      -0.3052364      -1.09961932e-01 -1.98986015e-01  1.55884421e-01 
     -0.1804459      -0.3411551       0.0058318       1.23926998e-02  8.56211216e-02  7.27767294e-02 
     -0.2059468       0.0679966      -0.2212077      -2.63267048e-02 -9.14021273e-02  1.16030611e-01 
     -0.0573116      -0.1583944       0.1636774       1.74734547e-02  4.32459064e-02 -6.94808393e-02 
     -0.2956781      -0.4566725       0.0614556       3.33609098e-02  1.63698096e-01 -6.95477048e-02 
     -0.3593459       0.0879797       0.1632584       1.58546619e-01 -3.12339389e-02 -1.42379420e-01 
     -0.1969820       0.0519992      -0.1043390       3.04410139e-02  1.33129152e-02 -1.68696322e-02 
# set: 0096 config: 0085  energy: 4.842138e-01 eV/at
     -0.3118642       0.0816813      -0.0811537       1.90324147e-01  8.20182614e-02  5.61430472e-02 
     -0.1403822       0.0343304      -0.0424623       4.60069327e-02  5.59918436e-02 -7.24516137e-02 
      0.3573873      -0.1288439      -0.0150915      -1.32776401e-01 -1.94035677e-02  3.36575972e-02 
     -0.0001674      -0.2236459       0.0351611      -1.95937320e-02  6.31309997e-02 -1.43652592e-02 
      0.4782343      -0.2136256       0.2886408      -3.02799592e-01  2.01291227e-02 -9.91445480e-02 
      0.1250860      -0.0300062       0.1628474      -1.41538222e-01 -4.88114384e-02 -6.92632755e-02 
     -0.2665318      -0.0917517      -0.2192561       1.59966036e-01  7.16177763e-02  4.70602680e-02 
     -0.1992080       0.3590482      -0.2790038       2.00410831e-01 -2.24672998e-01  1.18363784e-01 
# set: 0097 config: 0086  energy: 2.170346e-01 eV/at
     -0.3080909       0.2586915       0.1840863       1.34223090e-01 -1.78389947e-01 -1.39172371e-01 
      0.2249121       0.1184300      -0.0872987      -1.52794874e-01 -1.06205545e-01  1.21611130e-01 
     -0.0719351       0.0405844       0.0655142       2.23336277e-02 -6.11558581e-02 -5.89999475e-02 
     -0.0419615      -0.0339748       0.0168988       1.44252490e-02 -3.74982456e-02 -4.56801376e-02 
     -0.1220477      -0.0854314      -0.0954986       3.32843372e-02  5.64671279e-02  5.80825274e-02 
      0.0361306       0.0580617       0.0975145      -9.24664812e-02  4.76717755e-02  4.26941682e-02 
     -0.0286133      -0.2901421      -0.0504298       5.10504775e-02  2.18426815e-01 -6.56040655e-02 
     -0.1027755      -0.1851414      -0.0804654      -1.00554258e-02  6.06838767e-02  8.70686966e-02 
# set: 0098 config: 0087  energy: 4.072595e-01 eV/at
     -0.1326701      -0.0785240       0.2800211       5.36190285e-02  6.57305696e-02 -1.38043886e-01 
      0.1360751       0.1561375       0.2619026      -1.39189628e-01  2.87359137e-02 -1.52215229e-01 
      0.0349817      -0.2238418       0.2022448      -1.65125131e-01  1.76868697e-01 -1.48051974e-01 
     -0.1047964       0.1505049      -0.0743093       8.10313485e-02 -2.34514691e-02  6.03208602e-02 
      0.1051896       0.3899830      -0.1110900       2.82577726e-02 -1.98074821e-01  1.31394471e-01 
     -0.0383462      -0.3240472       0.0382921      -1.04142260e-01  1.74091021e-01  8.67576166e-02 
     -0.2019278      -0.0610415      -0.1329811       1.27727950e-01 -2.65406923e-02  1.20844171e-01 
     -0.1900525       0.4233116       0.1480298       1.17820920e-01 -1.97359219e-01  3.89939700e-02 
# set: 0099 config: 0088  energy: 3.404826e-01 eV/at
     -0.0551883       0.3137549       0.2486927      -3.54443970e-02 -6.86520943e-02 -1.24054924e-01 
      0.1635235      -0.1321163      -0.1711901      -7.68104949e-02  1.40103215e-01  5.04091439e-02 
     -0.1038069       0.1342345      -0.2907768      -3.25629994e-02 -4.06592694e-02  1.28663535e-01 
      0.1786049      -0.1554158       0.1781865      -1.91678763e-01  1.82857722e-01 -2.01536612e-01 
     -0.4649886       0.1693939      -0.0390650       1.58111981e-01 -3.00105373e-02  4.18698944e-02 
     -0.1884229       0.2552871       0.1618341       1.71491396e-01 -1.04436445e-01  1.59546235e-02 
     -0.0677943       0.1470231      -0.1132962      -2.09618423e-02 -6.35629850e-02 -7.77786547e-03 
     -0.1238016       0.0216272      -0.1310267       2.78551198e-02 -1.56396070e-02  9.64722047e-02 
# set: 0100 config: 0089  energy: 3.672687e-01 eV/at
      0.1384275       0.0378788       0.1528100      -4.72827690e-02 -4.07451750e-02 -3.16477394e-02 
      0.1802423       0.1661154      -0.3609284      -1.66187065e-01 -2.05835365e-01  2.23387821e-01 
     -0.0301652      -0.1080999       0.2107281       1.03449018e-01  2.03062553e-02 -6.87895641e-02 
     -0.2366525       0.1517316       0.0870842       1.61464326e-01 -1.09847576e-01 -1.09111975e-01 
      0.1800834      -0.2119302      -0.2443225      -2.56406316e-02  9.42488222e-02  1.43555800e-01 
      0.0729997       0.2151684      -0.0320846      -3.17264722e-02 -9.86266186e-02 -3.63573459e-02 
      0.2074864      -0.2058704       0.2913297       5.70398451e-02  2.59488872e-01 -1.62721068e-01 
      0.1337140      -0.2372335       0.0989395      -5.11162516e-02  8.10107850e-02  4.16840711e-02 
